%YAML 1.1
%TAG !u! tag:unity3d.com,2011:
--- !u!74 &7400000
AnimationClip:
  m_ObjectHideFlags: 0
  m_CorrespondingSourceObject: {fileID: 0}
  m_PrefabInstance: {fileID: 0}
  m_PrefabAsset: {fileID: 0}
  m_Name: Grow Platforma left
  serializedVersion: 6
  m_Legacy: 0
  m_Compressed: 0
  m_UseHighQualityCurve: 1
  m_RotationCurves: []
  m_CompressedRotationCurves: []
  m_EulerCurves: []
  m_PositionCurves: []
  m_ScaleCurves: []
  m_FloatCurves: []
  m_PPtrCurves:
  - curve:
    - time: 0
      value: {fileID: 21300000, guid: f19ff2875650c5940801fe594d378961, type: 3}
    - time: 0.16666667
      value: {fileID: 21300000, guid: 2fa09e49feace43489a0c9bcc3d5583d, type: 3}
    - time: 0.33333334
      value: {fileID: 21300000, guid: 766f1f814c7de6f4993d8518794d92be, type: 3}
    - time: 0.5
      value: {fileID: 21300000, guid: 28d8df72e1c098040828cc6909ec0bc7, type: 3}
    - time: 0.6666667
      value: {fileID: 21300000, guid: 6e154870855f67f48a69c3a453a84683, type: 3}
    - time: 0.8333333
      value: {fileID: 21300000, guid: 2fd906afd527dd14a982182eab63a7d6, type: 3}
    - time: 1
      value: {fileID: 21300000, guid: 0c82ce6d6e61ffa43a77a7a28030eae4, type: 3}
    - time: 1.1666666
      value: {fileID: 21300000, guid: ecbd032d5728fd54ab0d981406c250fd, type: 3}
    - time: 1.3333334
      value: {fileID: 21300000, guid: f648285757c837c46a7ba523e0b49c09, type: 3}
    - time: 1.5
      value: {fileID: 21300000, guid: 31ea9146735f29e4383e50f319d7f82d, type: 3}
    attribute: m_Sprite
    path: 
    classID: 212
    script: {fileID: 0}
  m_SampleRate: 60
  m_WrapMode: 0
  m_Bounds:
    m_Center: {x: 0, y: 0, z: 0}
    m_Extent: {x: 0, y: 0, z: 0}
  m_ClipBindingConstant:
    genericBindings:
    - serializedVersion: 2
      path: 0
      attribute: 0
      script: {fileID: 0}
      typeID: 212
      customType: 23
      isPPtrCurve: 1
    pptrCurveMapping:
    - {fileID: 21300000, guid: f19ff2875650c5940801fe594d378961, type: 3}
    - {fileID: 21300000, guid: 2fa09e49feace43489a0c9bcc3d5583d, type: 3}
    - {fileID: 21300000, guid: 766f1f814c7de6f4993d8518794d92be, type: 3}
    - {fileID: 21300000, guid: 28d8df72e1c098040828cc6909ec0bc7, type: 3}
    - {fileID: 21300000, guid: 6e154870855f67f48a69c3a453a84683, type: 3}
    - {fileID: 21300000, guid: 2fd906afd527dd14a982182eab63a7d6, type: 3}
    - {fileID: 21300000, guid: 0c82ce6d6e61ffa43a77a7a28030eae4, type: 3}
    - {fileID: 21300000, guid: ecbd032d5728fd54ab0d981406c250fd, type: 3}
    - {fileID: 21300000, guid: f648285757c837c46a7ba523e0b49c09, type: 3}
    - {fileID: 21300000, guid: 31ea9146735f29e4383e50f319d7f82d, type: 3}
  m_AnimationClipSettings:
    serializedVersion: 2
    m_AdditiveReferencePoseClip: {fileID: 0}
    m_AdditiveReferencePoseTime: 0
    m_StartTime: 0
    m_StopTime: 1.5166667
    m_OrientationOffsetY: 0
    m_Level: 0
    m_CycleOffset: 0
    m_HasAdditiveReferencePose: 0
    m_LoopTime: 1
    m_LoopBlend: 0
    m_LoopBlendOrientation: 0
    m_LoopBlendPositionY: 0
    m_LoopBlendPositionXZ: 0
    m_KeepOriginalOrientation: 0
    m_KeepOriginalPositionY: 1
    m_KeepOriginalPositionXZ: 0
    m_HeightFromFeet: 0
    m_Mirror: 0
  m_EditorCurves: []
  m_EulerEditorCurves: []
  m_HasGenericRootTransform: 0
  m_HasMotionFloatCurves: 0
  m_Events: []
