%YAML 1.1
%TAG !u! tag:unity3d.com,2011:
--- !u!29 &1
OcclusionCullingSettings:
  m_ObjectHideFlags: 0
  serializedVersion: 2
  m_OcclusionBakeSettings:
    smallestOccluder: 5
    smallestHole: 0.25
    backfaceThreshold: 100
  m_SceneGUID: 00000000000000000000000000000000
  m_OcclusionCullingData: {fileID: 0}
--- !u!104 &2
RenderSettings:
  m_ObjectHideFlags: 0
  serializedVersion: 9
  m_Fog: 0
  m_FogColor: {r: 0.5, g: 0.5, b: 0.5, a: 1}
  m_FogMode: 3
  m_FogDensity: 0.01
  m_LinearFogStart: 0
  m_LinearFogEnd: 300
  m_AmbientSkyColor: {r: 0.212, g: 0.227, b: 0.259, a: 1}
  m_AmbientEquatorColor: {r: 0.114, g: 0.125, b: 0.133, a: 1}
  m_AmbientGroundColor: {r: 0.047, g: 0.043, b: 0.035, a: 1}
  m_AmbientIntensity: 1
  m_AmbientMode: 3
  m_SubtractiveShadowColor: {r: 0.42, g: 0.478, b: 0.627, a: 1}
  m_SkyboxMaterial: {fileID: 0}
  m_HaloStrength: 0.5
  m_FlareStrength: 1
  m_FlareFadeSpeed: 3
  m_HaloTexture: {fileID: 0}
  m_SpotCookie: {fileID: 10001, guid: 0000000000000000e000000000000000, type: 0}
  m_DefaultReflectionMode: 0
  m_DefaultReflectionResolution: 128
  m_ReflectionBounces: 1
  m_ReflectionIntensity: 1
  m_CustomReflection: {fileID: 0}
  m_Sun: {fileID: 0}
  m_IndirectSpecularColor: {r: 0, g: 0, b: 0, a: 1}
  m_UseRadianceAmbientProbe: 0
--- !u!157 &3
LightmapSettings:
  m_ObjectHideFlags: 0
  serializedVersion: 11
  m_GIWorkflowMode: 1
  m_GISettings:
    serializedVersion: 2
    m_BounceScale: 1
    m_IndirectOutputScale: 1
    m_AlbedoBoost: 1
    m_EnvironmentLightingMode: 0
    m_EnableBakedLightmaps: 0
    m_EnableRealtimeLightmaps: 0
  m_LightmapEditorSettings:
    serializedVersion: 12
    m_Resolution: 2
    m_BakeResolution: 40
    m_AtlasSize: 1024
    m_AO: 0
    m_AOMaxDistance: 1
    m_CompAOExponent: 1
    m_CompAOExponentDirect: 0
    m_ExtractAmbientOcclusion: 0
    m_Padding: 2
    m_LightmapParameters: {fileID: 0}
    m_LightmapsBakeMode: 1
    m_TextureCompression: 1
    m_FinalGather: 0
    m_FinalGatherFiltering: 1
    m_FinalGatherRayCount: 256
    m_ReflectionCompression: 2
    m_MixedBakeMode: 2
    m_BakeBackend: 0
    m_PVRSampling: 1
    m_PVRDirectSampleCount: 32
    m_PVRSampleCount: 500
    m_PVRBounces: 2
    m_PVREnvironmentSampleCount: 500
    m_PVREnvironmentReferencePointCount: 2048
    m_PVRFilteringMode: 2
    m_PVRDenoiserTypeDirect: 0
    m_PVRDenoiserTypeIndirect: 0
    m_PVRDenoiserTypeAO: 0
    m_PVRFilterTypeDirect: 0
    m_PVRFilterTypeIndirect: 0
    m_PVRFilterTypeAO: 0
    m_PVREnvironmentMIS: 0
    m_PVRCulling: 1
    m_PVRFilteringGaussRadiusDirect: 1
    m_PVRFilteringGaussRadiusIndirect: 5
    m_PVRFilteringGaussRadiusAO: 2
    m_PVRFilteringAtrousPositionSigmaDirect: 0.5
    m_PVRFilteringAtrousPositionSigmaIndirect: 2
    m_PVRFilteringAtrousPositionSigmaAO: 1
    m_ExportTrainingData: 0
    m_TrainingDataDestination: TrainingData
    m_LightProbeSampleCountMultiplier: 4
  m_LightingDataAsset: {fileID: 0}
  m_UseShadowmask: 1
--- !u!196 &4
NavMeshSettings:
  serializedVersion: 2
  m_ObjectHideFlags: 0
  m_BuildSettings:
    serializedVersion: 2
    agentTypeID: 0
    agentRadius: 0.5
    agentHeight: 2
    agentSlope: 45
    agentClimb: 0.4
    ledgeDropHeight: 0
    maxJumpAcrossDistance: 0
    minRegionArea: 2
    manualCellSize: 0
    cellSize: 0.16666667
    manualTileSize: 0
    tileSize: 256
    accuratePlacement: 0
    debug:
      m_Flags: 0
  m_NavMeshData: {fileID: 0}
--- !u!1 &519420028
GameObject:
  m_ObjectHideFlags: 0
  m_CorrespondingSourceObject: {fileID: 0}
  m_PrefabInstance: {fileID: 0}
  m_PrefabAsset: {fileID: 0}
  serializedVersion: 6
  m_Component:
  - component: {fileID: 519420032}
  - component: {fileID: 519420031}
  - component: {fileID: 519420029}
  m_Layer: 0
  m_Name: Main Camera
  m_TagString: MainCamera
  m_Icon: {fileID: 0}
  m_NavMeshLayer: 0
  m_StaticEditorFlags: 0
  m_IsActive: 1
--- !u!81 &519420029
AudioListener:
  m_ObjectHideFlags: 0
  m_CorrespondingSourceObject: {fileID: 0}
  m_PrefabInstance: {fileID: 0}
  m_PrefabAsset: {fileID: 0}
  m_GameObject: {fileID: 519420028}
  m_Enabled: 1
--- !u!20 &519420031
Camera:
  m_ObjectHideFlags: 0
  m_CorrespondingSourceObject: {fileID: 0}
  m_PrefabInstance: {fileID: 0}
  m_PrefabAsset: {fileID: 0}
  m_GameObject: {fileID: 519420028}
  m_Enabled: 1
  serializedVersion: 2
  m_ClearFlags: 2
  m_BackGroundColor: {r: 0.19215687, g: 0.3019608, b: 0.4745098, a: 0}
  m_projectionMatrixMode: 1
  m_GateFitMode: 2
  m_FOVAxisMode: 0
  m_SensorSize: {x: 36, y: 24}
  m_LensShift: {x: 0, y: 0}
  m_FocalLength: 50
  m_NormalizedViewPortRect:
    serializedVersion: 2
    x: 0
    y: 0
    width: 1
    height: 1
  near clip plane: 0.3
  far clip plane: 1000
  field of view: 60
  orthographic: 1
  orthographic size: 5.3875837
  m_Depth: -1
  m_CullingMask:
    serializedVersion: 2
    m_Bits: 4294967295
  m_RenderingPath: -1
  m_TargetTexture: {fileID: 0}
  m_TargetDisplay: 0
  m_TargetEye: 0
  m_HDR: 1
  m_AllowMSAA: 0
  m_AllowDynamicResolution: 0
  m_ForceIntoRT: 0
  m_OcclusionCulling: 0
  m_StereoConvergence: 10
  m_StereoSeparation: 0.022
--- !u!4 &519420032
Transform:
  m_ObjectHideFlags: 0
  m_CorrespondingSourceObject: {fileID: 0}
  m_PrefabInstance: {fileID: 0}
  m_PrefabAsset: {fileID: 0}
  m_GameObject: {fileID: 519420028}
  m_LocalRotation: {x: -0, y: -0, z: -0, w: 1}
  m_LocalPosition: {x: -0.19, y: 0.75, z: -10}
  m_LocalScale: {x: 1, y: 1, z: 1}
  m_Children: []
  m_Father: {fileID: 0}
  m_RootOrder: 0
  m_LocalEulerAnglesHint: {x: 0, y: 0, z: 0}
--- !u!1 &694241759
GameObject:
  m_ObjectHideFlags: 0
  m_CorrespondingSourceObject: {fileID: 0}
  m_PrefabInstance: {fileID: 0}
  m_PrefabAsset: {fileID: 0}
  serializedVersion: 6
  m_Component:
  - component: {fileID: 694241761}
  - component: {fileID: 694241760}
  - component: {fileID: 694241763}
  - component: {fileID: 694241762}
  m_Layer: 0
  m_Name: ball
  m_TagString: Untagged
  m_Icon: {fileID: 0}
  m_NavMeshLayer: 0
  m_StaticEditorFlags: 0
  m_IsActive: 1
--- !u!212 &694241760
SpriteRenderer:
  m_ObjectHideFlags: 0
  m_CorrespondingSourceObject: {fileID: 0}
  m_PrefabInstance: {fileID: 0}
  m_PrefabAsset: {fileID: 0}
  m_GameObject: {fileID: 694241759}
  m_Enabled: 1
  m_CastShadows: 0
  m_ReceiveShadows: 0
  m_DynamicOccludee: 1
  m_MotionVectors: 1
  m_LightProbeUsage: 1
  m_ReflectionProbeUsage: 1
  m_RayTracingMode: 0
  m_RenderingLayerMask: 1
  m_RendererPriority: 0
  m_Materials:
  - {fileID: 10754, guid: 0000000000000000f000000000000000, type: 0}
  m_StaticBatchInfo:
    firstSubMesh: 0
    subMeshCount: 0
  m_StaticBatchRoot: {fileID: 0}
  m_ProbeAnchor: {fileID: 0}
  m_LightProbeVolumeOverride: {fileID: 0}
  m_ScaleInLightmap: 1
  m_ReceiveGI: 1
  m_PreserveUVs: 0
  m_IgnoreNormalsForChartDetection: 0
  m_ImportantGI: 0
  m_StitchLightmapSeams: 1
  m_SelectedEditorRenderState: 0
  m_MinimumChartSize: 4
  m_AutoUVMaxDistance: 0.5
  m_AutoUVMaxAngle: 89
  m_LightmapParameters: {fileID: 0}
  m_SortingLayerID: 0
  m_SortingLayer: 0
  m_SortingOrder: 0
  m_Sprite: {fileID: 21300000, guid: d5d4385a283d3d342beb84ec42f3440f, type: 3}
  m_Color: {r: 1, g: 1, b: 1, a: 1}
  m_FlipX: 0
  m_FlipY: 0
  m_DrawMode: 0
  m_Size: {x: 2, y: 2}
  m_AdaptiveModeThreshold: 0.5
  m_SpriteTileMode: 0
  m_WasSpriteAssigned: 1
  m_MaskInteraction: 0
  m_SpriteSortPoint: 0
--- !u!4 &694241761
Transform:
  m_ObjectHideFlags: 0
  m_CorrespondingSourceObject: {fileID: 0}
  m_PrefabInstance: {fileID: 0}
  m_PrefabAsset: {fileID: 0}
  m_GameObject: {fileID: 694241759}
  m_LocalRotation: {x: 0, y: 0, z: 0, w: 1}
  m_LocalPosition: {x: -2.56, y: 4.16, z: 0}
  m_LocalScale: {x: 0.892, y: 0.892, z: 0.892}
  m_Children: []
  m_Father: {fileID: 0}
  m_RootOrder: 10
  m_LocalEulerAnglesHint: {x: 0, y: 0, z: 0}
--- !u!50 &694241762
Rigidbody2D:
  serializedVersion: 4
  m_ObjectHideFlags: 0
  m_CorrespondingSourceObject: {fileID: 0}
  m_PrefabInstance: {fileID: 0}
  m_PrefabAsset: {fileID: 0}
  m_GameObject: {fileID: 694241759}
  m_BodyType: 0
  m_Simulated: 1
  m_UseFullKinematicContacts: 0
  m_UseAutoMass: 0
  m_Mass: 1
  m_LinearDrag: 0
  m_AngularDrag: 0.05
  m_GravityScale: 1
  m_Material: {fileID: 0}
  m_Interpolate: 0
  m_SleepingMode: 1
  m_CollisionDetection: 0
  m_Constraints: 0
--- !u!58 &694241763
CircleCollider2D:
  m_ObjectHideFlags: 0
  m_CorrespondingSourceObject: {fileID: 0}
  m_PrefabInstance: {fileID: 0}
  m_PrefabAsset: {fileID: 0}
  m_GameObject: {fileID: 694241759}
  m_Enabled: 1
  m_Density: 1
  m_Material: {fileID: 0}
  m_IsTrigger: 0
  m_UsedByEffector: 0
  m_UsedByComposite: 0
  m_Offset: {x: 0, y: 0}
  serializedVersion: 2
  m_Radius: 1
--- !u!1 &782292739
GameObject:
  m_ObjectHideFlags: 0
  m_CorrespondingSourceObject: {fileID: 0}
  m_PrefabInstance: {fileID: 0}
  m_PrefabAsset: {fileID: 0}
  serializedVersion: 6
  m_Component:
  - component: {fileID: 782292744}
  - component: {fileID: 782292743}
  - component: {fileID: 782292742}
  - component: {fileID: 782292741}
  - component: {fileID: 782292740}
  m_Layer: 9
  m_Name: Floor_wall (1)
  m_TagString: Platform_for_wall
  m_Icon: {fileID: 0}
  m_NavMeshLayer: 0
  m_StaticEditorFlags: 0
  m_IsActive: 1
--- !u!114 &782292740
MonoBehaviour:
  m_ObjectHideFlags: 0
  m_CorrespondingSourceObject: {fileID: 0}
  m_PrefabInstance: {fileID: 0}
  m_PrefabAsset: {fileID: 0}
  m_GameObject: {fileID: 782292739}
  m_Enabled: 1
  m_EditorHideFlags: 0
  m_Script: {fileID: 11500000, guid: eaf074212d787214a9978a770a40c5a3, type: 3}
  m_Name: 
  m_EditorClassIdentifier: 
  wall: {fileID: 6998016660896159725, guid: 83039989ff3701c428893f22604bcd0a, type: 3}
  wall_projection: {fileID: 6853927704144835390, guid: 3992347ce9838694bb6b0961b95910f6,
    type: 3}
--- !u!61 &782292741
BoxCollider2D:
  m_ObjectHideFlags: 0
  m_CorrespondingSourceObject: {fileID: 0}
  m_PrefabInstance: {fileID: 0}
  m_PrefabAsset: {fileID: 0}
  m_GameObject: {fileID: 782292739}
  m_Enabled: 1
  m_Density: 1
  m_Material: {fileID: 0}
  m_IsTrigger: 1
  m_UsedByEffector: 0
  m_UsedByComposite: 0
  m_Offset: {x: 0, y: 0.5}
  m_SpriteTilingProperty:
    border: {x: 0, y: 0, z: 0, w: 0}
    pivot: {x: 0.5, y: 0.5}
    oldSize: {x: 1, y: 1}
    newSize: {x: 1, y: 1}
    adaptiveTilingThreshold: 0.5
    drawMode: 0
    adaptiveTiling: 0
  m_AutoTiling: 0
  serializedVersion: 2
  m_Size: {x: 1, y: 0.7}
  m_EdgeRadius: 0
--- !u!61 &782292742
BoxCollider2D:
  m_ObjectHideFlags: 0
  m_CorrespondingSourceObject: {fileID: 0}
  m_PrefabInstance: {fileID: 0}
  m_PrefabAsset: {fileID: 0}
  m_GameObject: {fileID: 782292739}
  m_Enabled: 1
  m_Density: 1
  m_Material: {fileID: 6200000, guid: b86346fbd35ad7f45b7c0008d19e98c9, type: 2}
  m_IsTrigger: 0
  m_UsedByEffector: 0
  m_UsedByComposite: 0
  m_Offset: {x: 0, y: 0}
  m_SpriteTilingProperty:
    border: {x: 0, y: 0, z: 0, w: 0}
    pivot: {x: 0.5, y: 0.5}
    oldSize: {x: 1, y: 1}
    newSize: {x: 1, y: 1}
    adaptiveTilingThreshold: 0.5
    drawMode: 0
    adaptiveTiling: 0
  m_AutoTiling: 0
  serializedVersion: 2
  m_Size: {x: 1, y: 1}
  m_EdgeRadius: 0
--- !u!212 &782292743
SpriteRenderer:
  m_ObjectHideFlags: 0
  m_CorrespondingSourceObject: {fileID: 0}
  m_PrefabInstance: {fileID: 0}
  m_PrefabAsset: {fileID: 0}
  m_GameObject: {fileID: 782292739}
  m_Enabled: 1
  m_CastShadows: 0
  m_ReceiveShadows: 0
  m_DynamicOccludee: 1
  m_MotionVectors: 1
  m_LightProbeUsage: 1
  m_ReflectionProbeUsage: 1
  m_RayTracingMode: 0
  m_RenderingLayerMask: 1
  m_RendererPriority: 0
  m_Materials:
  - {fileID: 10754, guid: 0000000000000000f000000000000000, type: 0}
  m_StaticBatchInfo:
    firstSubMesh: 0
    subMeshCount: 0
  m_StaticBatchRoot: {fileID: 0}
  m_ProbeAnchor: {fileID: 0}
  m_LightProbeVolumeOverride: {fileID: 0}
  m_ScaleInLightmap: 1
  m_ReceiveGI: 1
  m_PreserveUVs: 0
  m_IgnoreNormalsForChartDetection: 0
  m_ImportantGI: 0
  m_StitchLightmapSeams: 1
  m_SelectedEditorRenderState: 0
  m_MinimumChartSize: 4
  m_AutoUVMaxDistance: 0.5
  m_AutoUVMaxAngle: 89
  m_LightmapParameters: {fileID: 0}
  m_SortingLayerID: 0
  m_SortingLayer: 0
  m_SortingOrder: 0
  m_Sprite: {fileID: 21300000, guid: 8c717820612fd704c9d4801850d7aaff, type: 3}
  m_Color: {r: 1, g: 1, b: 1, a: 1}
  m_FlipX: 0
  m_FlipY: 0
  m_DrawMode: 0
  m_Size: {x: 1, y: 1}
  m_AdaptiveModeThreshold: 0.5
  m_SpriteTileMode: 0
  m_WasSpriteAssigned: 1
  m_MaskInteraction: 0
  m_SpriteSortPoint: 0
--- !u!4 &782292744
Transform:
  m_ObjectHideFlags: 0
  m_CorrespondingSourceObject: {fileID: 0}
  m_PrefabInstance: {fileID: 0}
  m_PrefabAsset: {fileID: 0}
  m_GameObject: {fileID: 782292739}
  m_LocalRotation: {x: 0, y: 0, z: 0, w: 1}
  m_LocalPosition: {x: -0.21, y: 2.95, z: 0}
  m_LocalScale: {x: 1, y: 1, z: 1.1}
  m_Children: []
  m_Father: {fileID: 0}
  m_RootOrder: 11
  m_LocalEulerAnglesHint: {x: 0, y: 0, z: 0}
--- !u!1 &800441031
GameObject:
  m_ObjectHideFlags: 0
  m_CorrespondingSourceObject: {fileID: 0}
  m_PrefabInstance: {fileID: 0}
  m_PrefabAsset: {fileID: 0}
  serializedVersion: 6
  m_Component:
  - component: {fileID: 800441033}
  - component: {fileID: 800441032}
  - component: {fileID: 800441034}
  m_Layer: 8
  m_Name: Floor (2)
  m_TagString: Untagged
  m_Icon: {fileID: 0}
  m_NavMeshLayer: 0
  m_StaticEditorFlags: 0
  m_IsActive: 1
--- !u!212 &800441032
SpriteRenderer:
  m_ObjectHideFlags: 0
  m_CorrespondingSourceObject: {fileID: 0}
  m_PrefabInstance: {fileID: 0}
  m_PrefabAsset: {fileID: 0}
  m_GameObject: {fileID: 800441031}
  m_Enabled: 1
  m_CastShadows: 0
  m_ReceiveShadows: 0
  m_DynamicOccludee: 1
  m_MotionVectors: 1
  m_LightProbeUsage: 1
  m_ReflectionProbeUsage: 1
  m_RayTracingMode: 0
  m_RenderingLayerMask: 1
  m_RendererPriority: 0
  m_Materials:
  - {fileID: 10754, guid: 0000000000000000f000000000000000, type: 0}
  m_StaticBatchInfo:
    firstSubMesh: 0
    subMeshCount: 0
  m_StaticBatchRoot: {fileID: 0}
  m_ProbeAnchor: {fileID: 0}
  m_LightProbeVolumeOverride: {fileID: 0}
  m_ScaleInLightmap: 1
  m_ReceiveGI: 1
  m_PreserveUVs: 0
  m_IgnoreNormalsForChartDetection: 0
  m_ImportantGI: 0
  m_StitchLightmapSeams: 1
  m_SelectedEditorRenderState: 0
  m_MinimumChartSize: 4
  m_AutoUVMaxDistance: 0.5
  m_AutoUVMaxAngle: 89
  m_LightmapParameters: {fileID: 0}
  m_SortingLayerID: 0
  m_SortingLayer: 0
  m_SortingOrder: 0
  m_Sprite: {fileID: 21300000, guid: e4ce378e147c07b47ba616624b6f92ba, type: 3}
  m_Color: {r: 1, g: 1, b: 1, a: 1}
  m_FlipX: 0
  m_FlipY: 0
  m_DrawMode: 0
  m_Size: {x: 0.32, y: 0.11}
  m_AdaptiveModeThreshold: 0.5
  m_SpriteTileMode: 0
  m_WasSpriteAssigned: 1
  m_MaskInteraction: 0
  m_SpriteSortPoint: 0
--- !u!4 &800441033
Transform:
  m_ObjectHideFlags: 0
  m_CorrespondingSourceObject: {fileID: 0}
  m_PrefabInstance: {fileID: 0}
  m_PrefabAsset: {fileID: 0}
  m_GameObject: {fileID: 800441031}
  m_LocalRotation: {x: 0, y: 0, z: 0, w: 1}
  m_LocalPosition: {x: -3.931, y: -0.651, z: 0}
  m_LocalScale: {x: 1, y: 1, z: 1}
  m_Children: []
  m_Father: {fileID: 0}
  m_RootOrder: 5
  m_LocalEulerAnglesHint: {x: 0, y: 0, z: 0}
--- !u!61 &800441034
BoxCollider2D:
  m_ObjectHideFlags: 0
  m_CorrespondingSourceObject: {fileID: 0}
  m_PrefabInstance: {fileID: 0}
  m_PrefabAsset: {fileID: 0}
  m_GameObject: {fileID: 800441031}
  m_Enabled: 1
  m_Density: 1
  m_Material: {fileID: 0}
  m_IsTrigger: 0
  m_UsedByEffector: 0
  m_UsedByComposite: 0
  m_Offset: {x: 0, y: 0}
  m_SpriteTilingProperty:
    border: {x: 0, y: 0, z: 0, w: 0}
    pivot: {x: 0.5, y: 0.5}
    oldSize: {x: 2, y: 0.6875}
    newSize: {x: 0.32, y: 0.11}
    adaptiveTilingThreshold: 0.5
    drawMode: 0
    adaptiveTiling: 0
  m_AutoTiling: 0
  serializedVersion: 2
  m_Size: {x: 2, y: 0.6875}
  m_EdgeRadius: 0
--- !u!1 &939829045 stripped
GameObject:
  m_CorrespondingSourceObject: {fileID: 6553992823066255648, guid: f30507b4051669249a8fa7feb01ac27c,
    type: 3}
  m_PrefabInstance: {fileID: 1201344581}
  m_PrefabAsset: {fileID: 0}
--- !u!1001 &997784758
PrefabInstance:
  m_ObjectHideFlags: 0
  serializedVersion: 2
  m_Modification:
    m_TransformParent: {fileID: 0}
    m_Modifications:
    - target: {fileID: 660623269290956019, guid: 5ec59ebd78ae13b45aaf1c32de310caa,
        type: 3}
      propertyPath: m_Name
      value: Platform_Stand_l
      objectReference: {fileID: 0}
    - target: {fileID: 660623269290956028, guid: 5ec59ebd78ae13b45aaf1c32de310caa,
        type: 3}
      propertyPath: m_LocalPosition.x
      value: -0.20238802
      objectReference: {fileID: 0}
    - target: {fileID: 660623269290956028, guid: 5ec59ebd78ae13b45aaf1c32de310caa,
        type: 3}
      propertyPath: m_LocalPosition.y
      value: 3.726942
      objectReference: {fileID: 0}
    - target: {fileID: 660623269290956028, guid: 5ec59ebd78ae13b45aaf1c32de310caa,
        type: 3}
      propertyPath: m_LocalPosition.z
      value: 0
      objectReference: {fileID: 0}
    - target: {fileID: 660623269290956028, guid: 5ec59ebd78ae13b45aaf1c32de310caa,
        type: 3}
      propertyPath: m_LocalRotation.x
      value: 0
      objectReference: {fileID: 0}
    - target: {fileID: 660623269290956028, guid: 5ec59ebd78ae13b45aaf1c32de310caa,
        type: 3}
      propertyPath: m_LocalRotation.y
      value: 0
      objectReference: {fileID: 0}
    - target: {fileID: 660623269290956028, guid: 5ec59ebd78ae13b45aaf1c32de310caa,
        type: 3}
      propertyPath: m_LocalRotation.z
      value: 0
      objectReference: {fileID: 0}
    - target: {fileID: 660623269290956028, guid: 5ec59ebd78ae13b45aaf1c32de310caa,
        type: 3}
      propertyPath: m_LocalRotation.w
      value: 1
      objectReference: {fileID: 0}
    - target: {fileID: 660623269290956028, guid: 5ec59ebd78ae13b45aaf1c32de310caa,
        type: 3}
      propertyPath: m_RootOrder
      value: 3
      objectReference: {fileID: 0}
    - target: {fileID: 660623269290956028, guid: 5ec59ebd78ae13b45aaf1c32de310caa,
        type: 3}
      propertyPath: m_LocalEulerAnglesHint.x
      value: 0
      objectReference: {fileID: 0}
    - target: {fileID: 660623269290956028, guid: 5ec59ebd78ae13b45aaf1c32de310caa,
        type: 3}
      propertyPath: m_LocalEulerAnglesHint.y
      value: 0
      objectReference: {fileID: 0}
    - target: {fileID: 660623269290956028, guid: 5ec59ebd78ae13b45aaf1c32de310caa,
        type: 3}
      propertyPath: m_LocalEulerAnglesHint.z
      value: 0
      objectReference: {fileID: 0}
    m_RemovedComponents: []
  m_SourcePrefab: {fileID: 100100000, guid: 5ec59ebd78ae13b45aaf1c32de310caa, type: 3}
--- !u!1001 &1201344581
PrefabInstance:
  m_ObjectHideFlags: 0
  serializedVersion: 2
  m_Modification:
    m_TransformParent: {fileID: 0}
    m_Modifications:
    - target: {fileID: 6553992823066255648, guid: f30507b4051669249a8fa7feb01ac27c,
        type: 3}
      propertyPath: m_Name
      value: Platform_Stand_r
      objectReference: {fileID: 0}
    - target: {fileID: 6553992823066255660, guid: f30507b4051669249a8fa7feb01ac27c,
        type: 3}
      propertyPath: m_LocalPosition.x
      value: 2.095723
      objectReference: {fileID: 0}
    - target: {fileID: 6553992823066255660, guid: f30507b4051669249a8fa7feb01ac27c,
        type: 3}
      propertyPath: m_LocalPosition.y
      value: 3.726942
      objectReference: {fileID: 0}
    - target: {fileID: 6553992823066255660, guid: f30507b4051669249a8fa7feb01ac27c,
        type: 3}
      propertyPath: m_LocalPosition.z
      value: 0
      objectReference: {fileID: 0}
    - target: {fileID: 6553992823066255660, guid: f30507b4051669249a8fa7feb01ac27c,
        type: 3}
      propertyPath: m_LocalRotation.x
      value: 0
      objectReference: {fileID: 0}
    - target: {fileID: 6553992823066255660, guid: f30507b4051669249a8fa7feb01ac27c,
        type: 3}
      propertyPath: m_LocalRotation.y
      value: 0
      objectReference: {fileID: 0}
    - target: {fileID: 6553992823066255660, guid: f30507b4051669249a8fa7feb01ac27c,
        type: 3}
      propertyPath: m_LocalRotation.z
      value: 0
      objectReference: {fileID: 0}
    - target: {fileID: 6553992823066255660, guid: f30507b4051669249a8fa7feb01ac27c,
        type: 3}
      propertyPath: m_LocalRotation.w
      value: 1
      objectReference: {fileID: 0}
    - target: {fileID: 6553992823066255660, guid: f30507b4051669249a8fa7feb01ac27c,
        type: 3}
      propertyPath: m_RootOrder
      value: 2
      objectReference: {fileID: 0}
    - target: {fileID: 6553992823066255660, guid: f30507b4051669249a8fa7feb01ac27c,
        type: 3}
      propertyPath: m_LocalEulerAnglesHint.x
      value: 0
      objectReference: {fileID: 0}
    - target: {fileID: 6553992823066255660, guid: f30507b4051669249a8fa7feb01ac27c,
        type: 3}
      propertyPath: m_LocalEulerAnglesHint.y
      value: 0
      objectReference: {fileID: 0}
    - target: {fileID: 6553992823066255660, guid: f30507b4051669249a8fa7feb01ac27c,
        type: 3}
      propertyPath: m_LocalEulerAnglesHint.z
      value: 0
      objectReference: {fileID: 0}
    m_RemovedComponents: []
  m_SourcePrefab: {fileID: 100100000, guid: f30507b4051669249a8fa7feb01ac27c, type: 3}
--- !u!1 &1370509576
GameObject:
  m_ObjectHideFlags: 0
  m_CorrespondingSourceObject: {fileID: 0}
  m_PrefabInstance: {fileID: 0}
  m_PrefabAsset: {fileID: 0}
  serializedVersion: 6
  m_Component:
  - component: {fileID: 1370509578}
  - component: {fileID: 1370509577}
  - component: {fileID: 1370509579}
  m_Layer: 0
  m_Name: Floor (3)
  m_TagString: Untagged
  m_Icon: {fileID: 0}
  m_NavMeshLayer: 0
  m_StaticEditorFlags: 0
  m_IsActive: 1
--- !u!212 &1370509577
SpriteRenderer:
  m_ObjectHideFlags: 0
  m_CorrespondingSourceObject: {fileID: 0}
  m_PrefabInstance: {fileID: 0}
  m_PrefabAsset: {fileID: 0}
  m_GameObject: {fileID: 1370509576}
  m_Enabled: 1
  m_CastShadows: 0
  m_ReceiveShadows: 0
  m_DynamicOccludee: 1
  m_MotionVectors: 1
  m_LightProbeUsage: 1
  m_ReflectionProbeUsage: 1
  m_RayTracingMode: 0
  m_RenderingLayerMask: 1
  m_RendererPriority: 0
  m_Materials:
  - {fileID: 10754, guid: 0000000000000000f000000000000000, type: 0}
  m_StaticBatchInfo:
    firstSubMesh: 0
    subMeshCount: 0
  m_StaticBatchRoot: {fileID: 0}
  m_ProbeAnchor: {fileID: 0}
  m_LightProbeVolumeOverride: {fileID: 0}
  m_ScaleInLightmap: 1
  m_ReceiveGI: 1
  m_PreserveUVs: 0
  m_IgnoreNormalsForChartDetection: 0
  m_ImportantGI: 0
  m_StitchLightmapSeams: 1
  m_SelectedEditorRenderState: 0
  m_MinimumChartSize: 4
  m_AutoUVMaxDistance: 0.5
  m_AutoUVMaxAngle: 89
  m_LightmapParameters: {fileID: 0}
  m_SortingLayerID: 0
  m_SortingLayer: 0
  m_SortingOrder: 0
  m_Sprite: {fileID: 21300000, guid: e4ce378e147c07b47ba616624b6f92ba, type: 3}
  m_Color: {r: 1, g: 1, b: 1, a: 1}
  m_FlipX: 0
  m_FlipY: 0
  m_DrawMode: 0
  m_Size: {x: 0.32, y: 0.11}
  m_AdaptiveModeThreshold: 0.5
  m_SpriteTileMode: 0
  m_WasSpriteAssigned: 1
  m_MaskInteraction: 0
  m_SpriteSortPoint: 0
--- !u!4 &1370509578
Transform:
  m_ObjectHideFlags: 0
  m_CorrespondingSourceObject: {fileID: 0}
  m_PrefabInstance: {fileID: 0}
  m_PrefabAsset: {fileID: 0}
  m_GameObject: {fileID: 1370509576}
  m_LocalRotation: {x: 0, y: 0, z: 0, w: 1}
  m_LocalPosition: {x: -1.94, y: -0.651, z: 0}
  m_LocalScale: {x: 1, y: 1, z: 1}
  m_Children: []
  m_Father: {fileID: 0}
  m_RootOrder: 8
  m_LocalEulerAnglesHint: {x: 0, y: 0, z: 0}
--- !u!61 &1370509579
BoxCollider2D:
  m_ObjectHideFlags: 0
  m_CorrespondingSourceObject: {fileID: 0}
  m_PrefabInstance: {fileID: 0}
  m_PrefabAsset: {fileID: 0}
  m_GameObject: {fileID: 1370509576}
  m_Enabled: 1
  m_Density: 1
  m_Material: {fileID: 0}
  m_IsTrigger: 0
  m_UsedByEffector: 0
  m_UsedByComposite: 0
  m_Offset: {x: 0, y: 0}
  m_SpriteTilingProperty:
    border: {x: 0, y: 0, z: 0, w: 0}
    pivot: {x: 0.5, y: 0.5}
    oldSize: {x: 2, y: 0.6875}
    newSize: {x: 0.32, y: 0.11}
    adaptiveTilingThreshold: 0.5
    drawMode: 0
    adaptiveTiling: 0
  m_AutoTiling: 0
  serializedVersion: 2
  m_Size: {x: 2, y: 0.6875}
  m_EdgeRadius: 0
--- !u!1 &1761576370
GameObject:
  m_ObjectHideFlags: 0
  m_CorrespondingSourceObject: {fileID: 0}
  m_PrefabInstance: {fileID: 0}
  m_PrefabAsset: {fileID: 0}
  serializedVersion: 6
  m_Component:
  - component: {fileID: 1761576372}
  - component: {fileID: 1761576371}
  - component: {fileID: 1761576373}
  m_Layer: 8
  m_Name: Floor (1)
  m_TagString: Untagged
  m_Icon: {fileID: 0}
  m_NavMeshLayer: 0
  m_StaticEditorFlags: 0
  m_IsActive: 1
--- !u!212 &1761576371
SpriteRenderer:
  m_ObjectHideFlags: 0
  m_CorrespondingSourceObject: {fileID: 0}
  m_PrefabInstance: {fileID: 0}
  m_PrefabAsset: {fileID: 0}
  m_GameObject: {fileID: 1761576370}
  m_Enabled: 1
  m_CastShadows: 0
  m_ReceiveShadows: 0
  m_DynamicOccludee: 1
  m_MotionVectors: 1
  m_LightProbeUsage: 1
  m_ReflectionProbeUsage: 1
  m_RayTracingMode: 0
  m_RenderingLayerMask: 1
  m_RendererPriority: 0
  m_Materials:
  - {fileID: 10754, guid: 0000000000000000f000000000000000, type: 0}
  m_StaticBatchInfo:
    firstSubMesh: 0
    subMeshCount: 0
  m_StaticBatchRoot: {fileID: 0}
  m_ProbeAnchor: {fileID: 0}
  m_LightProbeVolumeOverride: {fileID: 0}
  m_ScaleInLightmap: 1
  m_ReceiveGI: 1
  m_PreserveUVs: 0
  m_IgnoreNormalsForChartDetection: 0
  m_ImportantGI: 0
  m_StitchLightmapSeams: 1
  m_SelectedEditorRenderState: 0
  m_MinimumChartSize: 4
  m_AutoUVMaxDistance: 0.5
  m_AutoUVMaxAngle: 89
  m_LightmapParameters: {fileID: 0}
  m_SortingLayerID: 0
  m_SortingLayer: 0
  m_SortingOrder: 0
  m_Sprite: {fileID: 21300000, guid: e4ce378e147c07b47ba616624b6f92ba, type: 3}
  m_Color: {r: 1, g: 1, b: 1, a: 1}
  m_FlipX: 0
  m_FlipY: 0
  m_DrawMode: 0
  m_Size: {x: 0.32, y: 0.11}
  m_AdaptiveModeThreshold: 0.5
  m_SpriteTileMode: 0
  m_WasSpriteAssigned: 1
  m_MaskInteraction: 0
  m_SpriteSortPoint: 0
--- !u!4 &1761576372
Transform:
  m_ObjectHideFlags: 0
  m_CorrespondingSourceObject: {fileID: 0}
  m_PrefabInstance: {fileID: 0}
  m_PrefabAsset: {fileID: 0}
  m_GameObject: {fileID: 1761576370}
  m_LocalRotation: {x: 0, y: 0, z: 0, w: 1}
  m_LocalPosition: {x: 2, y: -0.651, z: 0}
  m_LocalScale: {x: 1, y: 1, z: 1}
  m_Children: []
  m_Father: {fileID: 0}
  m_RootOrder: 6
  m_LocalEulerAnglesHint: {x: 0, y: 0, z: 0}
--- !u!61 &1761576373
BoxCollider2D:
  m_ObjectHideFlags: 0
  m_CorrespondingSourceObject: {fileID: 0}
  m_PrefabInstance: {fileID: 0}
  m_PrefabAsset: {fileID: 0}
  m_GameObject: {fileID: 1761576370}
  m_Enabled: 1
  m_Density: 1
  m_Material: {fileID: 0}
  m_IsTrigger: 0
  m_UsedByEffector: 0
  m_UsedByComposite: 0
  m_Offset: {x: 0, y: 0}
  m_SpriteTilingProperty:
    border: {x: 0, y: 0, z: 0, w: 0}
    pivot: {x: 0.5, y: 0.5}
    oldSize: {x: 2, y: 0.6875}
    newSize: {x: 0.32, y: 0.11}
    adaptiveTilingThreshold: 0.5
    drawMode: 0
    adaptiveTiling: 0
  m_AutoTiling: 0
  serializedVersion: 2
  m_Size: {x: 2, y: 0.6875}
  m_EdgeRadius: 0
--- !u!1001 &482486763843114391
PrefabInstance:
  m_ObjectHideFlags: 0
  serializedVersion: 2
  m_Modification:
    m_TransformParent: {fileID: 0}
    m_Modifications:
    - target: {fileID: 3913957096765333949, guid: 870fe1755d5daa347a6a46d336b07be2,
        type: 3}
      propertyPath: m_LocalPosition.x
      value: -0.58
      objectReference: {fileID: 0}
    - target: {fileID: 3913957096765333949, guid: 870fe1755d5daa347a6a46d336b07be2,
        type: 3}
      propertyPath: m_LocalPosition.y
      value: 5.12
      objectReference: {fileID: 0}
    - target: {fileID: 3913957096765333949, guid: 870fe1755d5daa347a6a46d336b07be2,
        type: 3}
      propertyPath: m_LocalPosition.z
      value: 0
      objectReference: {fileID: 0}
    - target: {fileID: 3913957096765333949, guid: 870fe1755d5daa347a6a46d336b07be2,
        type: 3}
      propertyPath: m_LocalRotation.x
      value: 0
      objectReference: {fileID: 0}
    - target: {fileID: 3913957096765333949, guid: 870fe1755d5daa347a6a46d336b07be2,
        type: 3}
      propertyPath: m_LocalRotation.y
      value: 0
      objectReference: {fileID: 0}
    - target: {fileID: 3913957096765333949, guid: 870fe1755d5daa347a6a46d336b07be2,
        type: 3}
      propertyPath: m_LocalRotation.z
      value: 0
      objectReference: {fileID: 0}
    - target: {fileID: 3913957096765333949, guid: 870fe1755d5daa347a6a46d336b07be2,
        type: 3}
      propertyPath: m_LocalRotation.w
      value: 1
      objectReference: {fileID: 0}
    - target: {fileID: 3913957096765333949, guid: 870fe1755d5daa347a6a46d336b07be2,
        type: 3}
      propertyPath: m_RootOrder
      value: 27
      objectReference: {fileID: 0}
    - target: {fileID: 3913957096765333949, guid: 870fe1755d5daa347a6a46d336b07be2,
        type: 3}
      propertyPath: m_LocalEulerAnglesHint.x
      value: 0
      objectReference: {fileID: 0}
    - target: {fileID: 3913957096765333949, guid: 870fe1755d5daa347a6a46d336b07be2,
        type: 3}
      propertyPath: m_LocalEulerAnglesHint.y
      value: 0
      objectReference: {fileID: 0}
    - target: {fileID: 3913957096765333949, guid: 870fe1755d5daa347a6a46d336b07be2,
        type: 3}
      propertyPath: m_LocalEulerAnglesHint.z
      value: 0
      objectReference: {fileID: 0}
    - target: {fileID: 7024391933833203830, guid: 870fe1755d5daa347a6a46d336b07be2,
        type: 3}
      propertyPath: m_Name
      value: Platform_projection_r
      objectReference: {fileID: 0}
    m_RemovedComponents: []
  m_SourcePrefab: {fileID: 100100000, guid: 870fe1755d5daa347a6a46d336b07be2, type: 3}
--- !u!1001 &732097824753829749
PrefabInstance:
  m_ObjectHideFlags: 0
  serializedVersion: 2
  m_Modification:
    m_TransformParent: {fileID: 0}
    m_Modifications:
    - target: {fileID: 732097824098920896, guid: 1b7376c52657a384694ff5558613834a,
        type: 3}
      propertyPath: m_LocalPosition.x
      value: 0.009
      objectReference: {fileID: 0}
    - target: {fileID: 732097824098920896, guid: 1b7376c52657a384694ff5558613834a,
        type: 3}
      propertyPath: m_LocalPosition.y
      value: -0.651
      objectReference: {fileID: 0}
    - target: {fileID: 732097824098920896, guid: 1b7376c52657a384694ff5558613834a,
        type: 3}
      propertyPath: m_LocalPosition.z
      value: 0
      objectReference: {fileID: 0}
    - target: {fileID: 732097824098920896, guid: 1b7376c52657a384694ff5558613834a,
        type: 3}
      propertyPath: m_LocalRotation.x
      value: 0
      objectReference: {fileID: 0}
    - target: {fileID: 732097824098920896, guid: 1b7376c52657a384694ff5558613834a,
        type: 3}
      propertyPath: m_LocalRotation.y
      value: 0
      objectReference: {fileID: 0}
    - target: {fileID: 732097824098920896, guid: 1b7376c52657a384694ff5558613834a,
        type: 3}
      propertyPath: m_LocalRotation.z
      value: 0
      objectReference: {fileID: 0}
    - target: {fileID: 732097824098920896, guid: 1b7376c52657a384694ff5558613834a,
        type: 3}
      propertyPath: m_LocalRotation.w
      value: 1
      objectReference: {fileID: 0}
    - target: {fileID: 732097824098920896, guid: 1b7376c52657a384694ff5558613834a,
        type: 3}
      propertyPath: m_RootOrder
      value: 1
      objectReference: {fileID: 0}
    - target: {fileID: 732097824098920896, guid: 1b7376c52657a384694ff5558613834a,
        type: 3}
      propertyPath: m_LocalEulerAnglesHint.x
      value: 0
      objectReference: {fileID: 0}
    - target: {fileID: 732097824098920896, guid: 1b7376c52657a384694ff5558613834a,
        type: 3}
      propertyPath: m_LocalEulerAnglesHint.y
      value: 0
      objectReference: {fileID: 0}
    - target: {fileID: 732097824098920896, guid: 1b7376c52657a384694ff5558613834a,
        type: 3}
      propertyPath: m_LocalEulerAnglesHint.z
      value: 0
      objectReference: {fileID: 0}
    - target: {fileID: 732097824098920902, guid: 1b7376c52657a384694ff5558613834a,
        type: 3}
      propertyPath: m_Name
      value: Floor
      objectReference: {fileID: 0}
    m_RemovedComponents: []
  m_SourcePrefab: {fileID: 100100000, guid: 1b7376c52657a384694ff5558613834a, type: 3}
--- !u!1001 &1892484594296048379
PrefabInstance:
  m_ObjectHideFlags: 0
  serializedVersion: 2
  m_Modification:
    m_TransformParent: {fileID: 0}
    m_Modifications:
    - target: {fileID: 1892484593762197208, guid: 35e621154c679054c8f540d7a32cdb12,
        type: 3}
      propertyPath: m_LocalPosition.x
      value: -2.06
      objectReference: {fileID: 0}
    - target: {fileID: 1892484593762197208, guid: 35e621154c679054c8f540d7a32cdb12,
        type: 3}
      propertyPath: m_LocalPosition.y
      value: -0.44
      objectReference: {fileID: 0}
    - target: {fileID: 1892484593762197208, guid: 35e621154c679054c8f540d7a32cdb12,
        type: 3}
      propertyPath: m_LocalPosition.z
      value: -0.02
      objectReference: {fileID: 0}
    - target: {fileID: 1892484593762197208, guid: 35e621154c679054c8f540d7a32cdb12,
        type: 3}
      propertyPath: m_LocalRotation.x
      value: 0
      objectReference: {fileID: 0}
    - target: {fileID: 1892484593762197208, guid: 35e621154c679054c8f540d7a32cdb12,
        type: 3}
      propertyPath: m_LocalRotation.y
      value: 0
      objectReference: {fileID: 0}
    - target: {fileID: 1892484593762197208, guid: 35e621154c679054c8f540d7a32cdb12,
        type: 3}
      propertyPath: m_LocalRotation.z
      value: 0
      objectReference: {fileID: 0}
    - target: {fileID: 1892484593762197208, guid: 35e621154c679054c8f540d7a32cdb12,
        type: 3}
      propertyPath: m_LocalRotation.w
      value: 1
      objectReference: {fileID: 0}
    - target: {fileID: 1892484593762197208, guid: 35e621154c679054c8f540d7a32cdb12,
        type: 3}
      propertyPath: m_RootOrder
      value: 9
      objectReference: {fileID: 0}
    - target: {fileID: 1892484593762197208, guid: 35e621154c679054c8f540d7a32cdb12,
        type: 3}
      propertyPath: m_LocalEulerAnglesHint.x
      value: 0
      objectReference: {fileID: 0}
    - target: {fileID: 1892484593762197208, guid: 35e621154c679054c8f540d7a32cdb12,
        type: 3}
      propertyPath: m_LocalEulerAnglesHint.y
      value: 0
      objectReference: {fileID: 0}
    - target: {fileID: 1892484593762197208, guid: 35e621154c679054c8f540d7a32cdb12,
        type: 3}
      propertyPath: m_LocalEulerAnglesHint.z
      value: 0
      objectReference: {fileID: 0}
    - target: {fileID: 1892484593762197211, guid: 35e621154c679054c8f540d7a32cdb12,
        type: 3}
      propertyPath: m_Name
      value: Floor_wall
      objectReference: {fileID: 0}
    m_RemovedComponents: []
  m_SourcePrefab: {fileID: 100100000, guid: 35e621154c679054c8f540d7a32cdb12, type: 3}
--- !u!1001 &1987243475187210165
PrefabInstance:
  m_ObjectHideFlags: 0
  serializedVersion: 2
  m_Modification:
    m_TransformParent: {fileID: 0}
    m_Modifications:
    - target: {fileID: 1348079792468542438, guid: a00bdfb0f1d4fa14cb3a81fde36a32cd,
        type: 3}
      propertyPath: m_LocalPosition.x
      value: -1.2615792
      objectReference: {fileID: 0}
    - target: {fileID: 1348079792468542438, guid: a00bdfb0f1d4fa14cb3a81fde36a32cd,
        type: 3}
      propertyPath: m_LocalPosition.y
      value: -1.9860368
      objectReference: {fileID: 0}
    - target: {fileID: 1348079792468542438, guid: a00bdfb0f1d4fa14cb3a81fde36a32cd,
        type: 3}
      propertyPath: m_LocalPosition.z
      value: 0
      objectReference: {fileID: 0}
    - target: {fileID: 1348079792468542438, guid: a00bdfb0f1d4fa14cb3a81fde36a32cd,
        type: 3}
      propertyPath: m_LocalRotation.x
      value: 0
      objectReference: {fileID: 0}
    - target: {fileID: 1348079792468542438, guid: a00bdfb0f1d4fa14cb3a81fde36a32cd,
        type: 3}
      propertyPath: m_LocalRotation.y
      value: 0
      objectReference: {fileID: 0}
    - target: {fileID: 1348079792468542438, guid: a00bdfb0f1d4fa14cb3a81fde36a32cd,
        type: 3}
      propertyPath: m_LocalRotation.z
      value: 0
      objectReference: {fileID: 0}
    - target: {fileID: 1348079792468542438, guid: a00bdfb0f1d4fa14cb3a81fde36a32cd,
        type: 3}
      propertyPath: m_LocalRotation.w
      value: 1
      objectReference: {fileID: 0}
    - target: {fileID: 1348079792468542438, guid: a00bdfb0f1d4fa14cb3a81fde36a32cd,
        type: 3}
      propertyPath: m_RootOrder
      value: 20
      objectReference: {fileID: 0}
    - target: {fileID: 1348079792468542438, guid: a00bdfb0f1d4fa14cb3a81fde36a32cd,
        type: 3}
      propertyPath: m_LocalEulerAnglesHint.x
      value: 0
      objectReference: {fileID: 0}
    - target: {fileID: 1348079792468542438, guid: a00bdfb0f1d4fa14cb3a81fde36a32cd,
        type: 3}
      propertyPath: m_LocalEulerAnglesHint.y
      value: 0
      objectReference: {fileID: 0}
    - target: {fileID: 1348079792468542438, guid: a00bdfb0f1d4fa14cb3a81fde36a32cd,
        type: 3}
      propertyPath: m_LocalEulerAnglesHint.z
      value: 0
      objectReference: {fileID: 0}
    - target: {fileID: 9162687737734602036, guid: a00bdfb0f1d4fa14cb3a81fde36a32cd,
        type: 3}
      propertyPath: m_Name
      value: Grass_ground7
      objectReference: {fileID: 0}
    m_RemovedComponents: []
  m_SourcePrefab: {fileID: 100100000, guid: a00bdfb0f1d4fa14cb3a81fde36a32cd, type: 3}
--- !u!1001 &2592589952944801487
PrefabInstance:
  m_ObjectHideFlags: 0
  serializedVersion: 2
  m_Modification:
    m_TransformParent: {fileID: 0}
    m_Modifications:
    - target: {fileID: 2592589952505887985, guid: 88e6690e49bdc574baf4e1d593ffc951,
        type: 3}
      propertyPath: m_LocalPosition.x
      value: -0.18710339
      objectReference: {fileID: 0}
    - target: {fileID: 2592589952505887985, guid: 88e6690e49bdc574baf4e1d593ffc951,
        type: 3}
      propertyPath: m_LocalPosition.y
      value: -2.0020738
      objectReference: {fileID: 0}
    - target: {fileID: 2592589952505887985, guid: 88e6690e49bdc574baf4e1d593ffc951,
        type: 3}
      propertyPath: m_LocalPosition.z
      value: 0
      objectReference: {fileID: 0}
    - target: {fileID: 2592589952505887985, guid: 88e6690e49bdc574baf4e1d593ffc951,
        type: 3}
      propertyPath: m_LocalRotation.x
      value: 0
      objectReference: {fileID: 0}
    - target: {fileID: 2592589952505887985, guid: 88e6690e49bdc574baf4e1d593ffc951,
        type: 3}
      propertyPath: m_LocalRotation.y
      value: 0
      objectReference: {fileID: 0}
    - target: {fileID: 2592589952505887985, guid: 88e6690e49bdc574baf4e1d593ffc951,
        type: 3}
      propertyPath: m_LocalRotation.z
      value: 0
      objectReference: {fileID: 0}
    - target: {fileID: 2592589952505887985, guid: 88e6690e49bdc574baf4e1d593ffc951,
        type: 3}
      propertyPath: m_LocalRotation.w
      value: 1
      objectReference: {fileID: 0}
    - target: {fileID: 2592589952505887985, guid: 88e6690e49bdc574baf4e1d593ffc951,
        type: 3}
      propertyPath: m_RootOrder
      value: 15
      objectReference: {fileID: 0}
    - target: {fileID: 2592589952505887985, guid: 88e6690e49bdc574baf4e1d593ffc951,
        type: 3}
      propertyPath: m_LocalEulerAnglesHint.x
      value: 0
      objectReference: {fileID: 0}
    - target: {fileID: 2592589952505887985, guid: 88e6690e49bdc574baf4e1d593ffc951,
        type: 3}
      propertyPath: m_LocalEulerAnglesHint.y
      value: 0
      objectReference: {fileID: 0}
    - target: {fileID: 2592589952505887985, guid: 88e6690e49bdc574baf4e1d593ffc951,
        type: 3}
      propertyPath: m_LocalEulerAnglesHint.z
      value: 0
      objectReference: {fileID: 0}
    - target: {fileID: 2592589952505887988, guid: 88e6690e49bdc574baf4e1d593ffc951,
        type: 3}
      propertyPath: m_Name
      value: Grass_ground2
      objectReference: {fileID: 0}
    m_RemovedComponents: []
  m_SourcePrefab: {fileID: 100100000, guid: 88e6690e49bdc574baf4e1d593ffc951, type: 3}
--- !u!1001 &2595419208214587729
PrefabInstance:
  m_ObjectHideFlags: 0
  serializedVersion: 2
  m_Modification:
    m_TransformParent: {fileID: 0}
    m_Modifications:
    - target: {fileID: 2152417284207412937, guid: 8d06af3812cdb5d458aa1d8e6b3d598b,
        type: 3}
      propertyPath: m_Name
      value: Grass_ground8
      objectReference: {fileID: 0}
    - target: {fileID: 8089551814713661467, guid: 8d06af3812cdb5d458aa1d8e6b3d598b,
        type: 3}
      propertyPath: m_LocalPosition.x
      value: -1.2615792
      objectReference: {fileID: 0}
    - target: {fileID: 8089551814713661467, guid: 8d06af3812cdb5d458aa1d8e6b3d598b,
        type: 3}
      propertyPath: m_LocalPosition.y
      value: -1.9860368
      objectReference: {fileID: 0}
    - target: {fileID: 8089551814713661467, guid: 8d06af3812cdb5d458aa1d8e6b3d598b,
        type: 3}
      propertyPath: m_LocalPosition.z
      value: 0
      objectReference: {fileID: 0}
    - target: {fileID: 8089551814713661467, guid: 8d06af3812cdb5d458aa1d8e6b3d598b,
        type: 3}
      propertyPath: m_LocalRotation.x
      value: 0
      objectReference: {fileID: 0}
    - target: {fileID: 8089551814713661467, guid: 8d06af3812cdb5d458aa1d8e6b3d598b,
        type: 3}
      propertyPath: m_LocalRotation.y
      value: 0
      objectReference: {fileID: 0}
    - target: {fileID: 8089551814713661467, guid: 8d06af3812cdb5d458aa1d8e6b3d598b,
        type: 3}
      propertyPath: m_LocalRotation.z
      value: 0
      objectReference: {fileID: 0}
    - target: {fileID: 8089551814713661467, guid: 8d06af3812cdb5d458aa1d8e6b3d598b,
        type: 3}
      propertyPath: m_LocalRotation.w
      value: 1
      objectReference: {fileID: 0}
    - target: {fileID: 8089551814713661467, guid: 8d06af3812cdb5d458aa1d8e6b3d598b,
        type: 3}
      propertyPath: m_RootOrder
      value: 21
      objectReference: {fileID: 0}
    - target: {fileID: 8089551814713661467, guid: 8d06af3812cdb5d458aa1d8e6b3d598b,
        type: 3}
      propertyPath: m_LocalEulerAnglesHint.x
      value: 0
      objectReference: {fileID: 0}
    - target: {fileID: 8089551814713661467, guid: 8d06af3812cdb5d458aa1d8e6b3d598b,
        type: 3}
      propertyPath: m_LocalEulerAnglesHint.y
      value: 0
      objectReference: {fileID: 0}
    - target: {fileID: 8089551814713661467, guid: 8d06af3812cdb5d458aa1d8e6b3d598b,
        type: 3}
      propertyPath: m_LocalEulerAnglesHint.z
      value: 0
      objectReference: {fileID: 0}
    m_RemovedComponents: []
  m_SourcePrefab: {fileID: 100100000, guid: 8d06af3812cdb5d458aa1d8e6b3d598b, type: 3}
--- !u!1001 &3054929111786246582
PrefabInstance:
  m_ObjectHideFlags: 0
  serializedVersion: 2
  m_Modification:
    m_TransformParent: {fileID: 0}
    m_Modifications:
    - target: {fileID: 3054929111110473300, guid: 254a7f760fc19c940ad5205620fe942d,
        type: 3}
      propertyPath: platform
      value: 
      objectReference: {fileID: 939829045}
    - target: {fileID: 3054929111110473303, guid: 254a7f760fc19c940ad5205620fe942d,
        type: 3}
      propertyPath: m_LocalPosition.x
      value: 2.46
      objectReference: {fileID: 0}
    - target: {fileID: 3054929111110473303, guid: 254a7f760fc19c940ad5205620fe942d,
        type: 3}
      propertyPath: m_LocalPosition.y
      value: 1.96
      objectReference: {fileID: 0}
    - target: {fileID: 3054929111110473303, guid: 254a7f760fc19c940ad5205620fe942d,
        type: 3}
      propertyPath: m_LocalPosition.z
      value: 0
      objectReference: {fileID: 0}
    - target: {fileID: 3054929111110473303, guid: 254a7f760fc19c940ad5205620fe942d,
        type: 3}
      propertyPath: m_LocalRotation.x
      value: 0
      objectReference: {fileID: 0}
    - target: {fileID: 3054929111110473303, guid: 254a7f760fc19c940ad5205620fe942d,
        type: 3}
      propertyPath: m_LocalRotation.y
      value: 0
      objectReference: {fileID: 0}
    - target: {fileID: 3054929111110473303, guid: 254a7f760fc19c940ad5205620fe942d,
        type: 3}
      propertyPath: m_LocalRotation.z
      value: 0
      objectReference: {fileID: 0}
    - target: {fileID: 3054929111110473303, guid: 254a7f760fc19c940ad5205620fe942d,
        type: 3}
      propertyPath: m_LocalRotation.w
      value: 1
      objectReference: {fileID: 0}
    - target: {fileID: 3054929111110473303, guid: 254a7f760fc19c940ad5205620fe942d,
        type: 3}
      propertyPath: m_RootOrder
      value: 13
      objectReference: {fileID: 0}
    - target: {fileID: 3054929111110473303, guid: 254a7f760fc19c940ad5205620fe942d,
        type: 3}
      propertyPath: m_LocalEulerAnglesHint.x
      value: 0
      objectReference: {fileID: 0}
    - target: {fileID: 3054929111110473303, guid: 254a7f760fc19c940ad5205620fe942d,
        type: 3}
      propertyPath: m_LocalEulerAnglesHint.y
      value: 0
      objectReference: {fileID: 0}
    - target: {fileID: 3054929111110473303, guid: 254a7f760fc19c940ad5205620fe942d,
        type: 3}
      propertyPath: m_LocalEulerAnglesHint.z
      value: 0
      objectReference: {fileID: 0}
    - target: {fileID: 3054929111110473323, guid: 254a7f760fc19c940ad5205620fe942d,
        type: 3}
      propertyPath: m_Name
      value: Wall_platform_right
      objectReference: {fileID: 0}
    m_RemovedComponents: []
  m_SourcePrefab: {fileID: 100100000, guid: 254a7f760fc19c940ad5205620fe942d, type: 3}
--- !u!1001 &3515920464816893060
PrefabInstance:
  m_ObjectHideFlags: 0
  serializedVersion: 2
  m_Modification:
    m_TransformParent: {fileID: 0}
    m_Modifications:
    - target: {fileID: 3881215891788801499, guid: a2f01d40a523629478055ad23165c931,
        type: 3}
      propertyPath: m_LocalPosition.x
      value: -1.2615792
      objectReference: {fileID: 0}
    - target: {fileID: 3881215891788801499, guid: a2f01d40a523629478055ad23165c931,
        type: 3}
      propertyPath: m_LocalPosition.y
      value: -1.9860368
      objectReference: {fileID: 0}
    - target: {fileID: 3881215891788801499, guid: a2f01d40a523629478055ad23165c931,
        type: 3}
      propertyPath: m_LocalPosition.z
      value: 0
      objectReference: {fileID: 0}
    - target: {fileID: 3881215891788801499, guid: a2f01d40a523629478055ad23165c931,
        type: 3}
      propertyPath: m_LocalRotation.x
      value: 0
      objectReference: {fileID: 0}
    - target: {fileID: 3881215891788801499, guid: a2f01d40a523629478055ad23165c931,
        type: 3}
      propertyPath: m_LocalRotation.y
      value: 0
      objectReference: {fileID: 0}
    - target: {fileID: 3881215891788801499, guid: a2f01d40a523629478055ad23165c931,
        type: 3}
      propertyPath: m_LocalRotation.z
      value: 0
      objectReference: {fileID: 0}
    - target: {fileID: 3881215891788801499, guid: a2f01d40a523629478055ad23165c931,
        type: 3}
      propertyPath: m_LocalRotation.w
      value: 1
      objectReference: {fileID: 0}
    - target: {fileID: 3881215891788801499, guid: a2f01d40a523629478055ad23165c931,
        type: 3}
      propertyPath: m_RootOrder
      value: 26
      objectReference: {fileID: 0}
    - target: {fileID: 3881215891788801499, guid: a2f01d40a523629478055ad23165c931,
        type: 3}
      propertyPath: m_LocalEulerAnglesHint.x
      value: 0
      objectReference: {fileID: 0}
    - target: {fileID: 3881215891788801499, guid: a2f01d40a523629478055ad23165c931,
        type: 3}
      propertyPath: m_LocalEulerAnglesHint.y
      value: 0
      objectReference: {fileID: 0}
    - target: {fileID: 3881215891788801499, guid: a2f01d40a523629478055ad23165c931,
        type: 3}
      propertyPath: m_LocalEulerAnglesHint.z
      value: 0
      objectReference: {fileID: 0}
    - target: {fileID: 6359621247364233993, guid: a2f01d40a523629478055ad23165c931,
        type: 3}
      propertyPath: m_Name
      value: Grass_ground13
      objectReference: {fileID: 0}
    m_RemovedComponents: []
  m_SourcePrefab: {fileID: 100100000, guid: a2f01d40a523629478055ad23165c931, type: 3}
--- !u!1001 &3996647671185502577
PrefabInstance:
  m_ObjectHideFlags: 0
  serializedVersion: 2
  m_Modification:
    m_TransformParent: {fileID: 0}
    m_Modifications:
    - target: {fileID: 3771826818727853080, guid: f00db1299e4aa6340abe9466d986b527,
        type: 3}
      propertyPath: m_Name
      value: Grass_ground9
      objectReference: {fileID: 0}
    - target: {fileID: 6468585371727258314, guid: f00db1299e4aa6340abe9466d986b527,
        type: 3}
      propertyPath: m_LocalPosition.x
      value: -1.2615792
      objectReference: {fileID: 0}
    - target: {fileID: 6468585371727258314, guid: f00db1299e4aa6340abe9466d986b527,
        type: 3}
      propertyPath: m_LocalPosition.y
      value: -1.9860368
      objectReference: {fileID: 0}
    - target: {fileID: 6468585371727258314, guid: f00db1299e4aa6340abe9466d986b527,
        type: 3}
      propertyPath: m_LocalPosition.z
      value: 0
      objectReference: {fileID: 0}
    - target: {fileID: 6468585371727258314, guid: f00db1299e4aa6340abe9466d986b527,
        type: 3}
      propertyPath: m_LocalRotation.x
      value: 0
      objectReference: {fileID: 0}
    - target: {fileID: 6468585371727258314, guid: f00db1299e4aa6340abe9466d986b527,
        type: 3}
      propertyPath: m_LocalRotation.y
      value: 0
      objectReference: {fileID: 0}
    - target: {fileID: 6468585371727258314, guid: f00db1299e4aa6340abe9466d986b527,
        type: 3}
      propertyPath: m_LocalRotation.z
      value: 0
      objectReference: {fileID: 0}
    - target: {fileID: 6468585371727258314, guid: f00db1299e4aa6340abe9466d986b527,
        type: 3}
      propertyPath: m_LocalRotation.w
      value: 1
      objectReference: {fileID: 0}
    - target: {fileID: 6468585371727258314, guid: f00db1299e4aa6340abe9466d986b527,
        type: 3}
      propertyPath: m_RootOrder
      value: 22
      objectReference: {fileID: 0}
    - target: {fileID: 6468585371727258314, guid: f00db1299e4aa6340abe9466d986b527,
        type: 3}
      propertyPath: m_LocalEulerAnglesHint.x
      value: 0
      objectReference: {fileID: 0}
    - target: {fileID: 6468585371727258314, guid: f00db1299e4aa6340abe9466d986b527,
        type: 3}
      propertyPath: m_LocalEulerAnglesHint.y
      value: 0
      objectReference: {fileID: 0}
    - target: {fileID: 6468585371727258314, guid: f00db1299e4aa6340abe9466d986b527,
        type: 3}
      propertyPath: m_LocalEulerAnglesHint.z
      value: 0
      objectReference: {fileID: 0}
    m_RemovedComponents: []
  m_SourcePrefab: {fileID: 100100000, guid: f00db1299e4aa6340abe9466d986b527, type: 3}
--- !u!1001 &5808625538191414966
PrefabInstance:
  m_ObjectHideFlags: 0
  serializedVersion: 2
  m_Modification:
    m_TransformParent: {fileID: 0}
    m_Modifications:
    - target: {fileID: 1448547798765040084, guid: 7049f406e558c354e90d32dc71ac12c6,
        type: 3}
      propertyPath: m_Name
      value: Grass_ground6
      objectReference: {fileID: 0}
    - target: {fileID: 6971510322171813138, guid: 7049f406e558c354e90d32dc71ac12c6,
        type: 3}
      propertyPath: m_LocalPosition.x
      value: -1.2615792
      objectReference: {fileID: 0}
    - target: {fileID: 6971510322171813138, guid: 7049f406e558c354e90d32dc71ac12c6,
        type: 3}
      propertyPath: m_LocalPosition.y
      value: -1.9860368
      objectReference: {fileID: 0}
    - target: {fileID: 6971510322171813138, guid: 7049f406e558c354e90d32dc71ac12c6,
        type: 3}
      propertyPath: m_LocalPosition.z
      value: 0
      objectReference: {fileID: 0}
    - target: {fileID: 6971510322171813138, guid: 7049f406e558c354e90d32dc71ac12c6,
        type: 3}
      propertyPath: m_LocalRotation.x
      value: 0
      objectReference: {fileID: 0}
    - target: {fileID: 6971510322171813138, guid: 7049f406e558c354e90d32dc71ac12c6,
        type: 3}
      propertyPath: m_LocalRotation.y
      value: 0
      objectReference: {fileID: 0}
    - target: {fileID: 6971510322171813138, guid: 7049f406e558c354e90d32dc71ac12c6,
        type: 3}
      propertyPath: m_LocalRotation.z
      value: 0
      objectReference: {fileID: 0}
    - target: {fileID: 6971510322171813138, guid: 7049f406e558c354e90d32dc71ac12c6,
        type: 3}
      propertyPath: m_LocalRotation.w
      value: 1
      objectReference: {fileID: 0}
    - target: {fileID: 6971510322171813138, guid: 7049f406e558c354e90d32dc71ac12c6,
        type: 3}
      propertyPath: m_RootOrder
      value: 19
      objectReference: {fileID: 0}
    - target: {fileID: 6971510322171813138, guid: 7049f406e558c354e90d32dc71ac12c6,
        type: 3}
      propertyPath: m_LocalEulerAnglesHint.x
      value: 0
      objectReference: {fileID: 0}
    - target: {fileID: 6971510322171813138, guid: 7049f406e558c354e90d32dc71ac12c6,
        type: 3}
      propertyPath: m_LocalEulerAnglesHint.y
      value: 0
      objectReference: {fileID: 0}
    - target: {fileID: 6971510322171813138, guid: 7049f406e558c354e90d32dc71ac12c6,
        type: 3}
      propertyPath: m_LocalEulerAnglesHint.z
      value: 0
      objectReference: {fileID: 0}
    m_RemovedComponents: []
  m_SourcePrefab: {fileID: 100100000, guid: 7049f406e558c354e90d32dc71ac12c6, type: 3}
--- !u!1001 &6477760570180259778
PrefabInstance:
  m_ObjectHideFlags: 0
  serializedVersion: 2
  m_Modification:
    m_TransformParent: {fileID: 0}
    m_Modifications:
    - target: {fileID: 5981540363711668049, guid: 4bb28697c2dfc1844a6e30f8776218a7,
        type: 3}
      propertyPath: m_LocalPosition.x
      value: 2.6274316
      objectReference: {fileID: 0}
    - target: {fileID: 5981540363711668049, guid: 4bb28697c2dfc1844a6e30f8776218a7,
        type: 3}
      propertyPath: m_LocalPosition.y
      value: 4.9465966
      objectReference: {fileID: 0}
    - target: {fileID: 5981540363711668049, guid: 4bb28697c2dfc1844a6e30f8776218a7,
        type: 3}
      propertyPath: m_LocalPosition.z
      value: 0
      objectReference: {fileID: 0}
    - target: {fileID: 5981540363711668049, guid: 4bb28697c2dfc1844a6e30f8776218a7,
        type: 3}
      propertyPath: m_LocalRotation.x
      value: 0
      objectReference: {fileID: 0}
    - target: {fileID: 5981540363711668049, guid: 4bb28697c2dfc1844a6e30f8776218a7,
        type: 3}
      propertyPath: m_LocalRotation.y
      value: 0
      objectReference: {fileID: 0}
    - target: {fileID: 5981540363711668049, guid: 4bb28697c2dfc1844a6e30f8776218a7,
        type: 3}
      propertyPath: m_LocalRotation.z
      value: 0
      objectReference: {fileID: 0}
    - target: {fileID: 5981540363711668049, guid: 4bb28697c2dfc1844a6e30f8776218a7,
        type: 3}
      propertyPath: m_LocalRotation.w
      value: 1
      objectReference: {fileID: 0}
    - target: {fileID: 5981540363711668049, guid: 4bb28697c2dfc1844a6e30f8776218a7,
        type: 3}
      propertyPath: m_RootOrder
      value: 28
      objectReference: {fileID: 0}
    - target: {fileID: 5981540363711668049, guid: 4bb28697c2dfc1844a6e30f8776218a7,
        type: 3}
      propertyPath: m_LocalEulerAnglesHint.x
      value: 0
      objectReference: {fileID: 0}
    - target: {fileID: 5981540363711668049, guid: 4bb28697c2dfc1844a6e30f8776218a7,
        type: 3}
      propertyPath: m_LocalEulerAnglesHint.y
      value: 0
      objectReference: {fileID: 0}
    - target: {fileID: 5981540363711668049, guid: 4bb28697c2dfc1844a6e30f8776218a7,
        type: 3}
      propertyPath: m_LocalEulerAnglesHint.z
      value: 0
      objectReference: {fileID: 0}
    - target: {fileID: 8307452289831368808, guid: 4bb28697c2dfc1844a6e30f8776218a7,
        type: 3}
      propertyPath: m_Name
      value: Platform_projection_l
      objectReference: {fileID: 0}
    m_RemovedComponents: []
  m_SourcePrefab: {fileID: 100100000, guid: 4bb28697c2dfc1844a6e30f8776218a7, type: 3}
--- !u!1001 &6754533543383095059
PrefabInstance:
  m_ObjectHideFlags: 0
  serializedVersion: 2
  m_Modification:
    m_TransformParent: {fileID: 0}
    m_Modifications:
    - target: {fileID: 1191609458605085974, guid: 0d9ed8cfdcfa768488ef14d7af3ae5c9,
        type: 3}
      propertyPath: m_Name
      value: Grass_ground12
      objectReference: {fileID: 0}
    - target: {fileID: 9012902298856262596, guid: 0d9ed8cfdcfa768488ef14d7af3ae5c9,
        type: 3}
      propertyPath: m_LocalPosition.x
      value: -1.2615792
      objectReference: {fileID: 0}
    - target: {fileID: 9012902298856262596, guid: 0d9ed8cfdcfa768488ef14d7af3ae5c9,
        type: 3}
      propertyPath: m_LocalPosition.y
      value: -1.9860368
      objectReference: {fileID: 0}
    - target: {fileID: 9012902298856262596, guid: 0d9ed8cfdcfa768488ef14d7af3ae5c9,
        type: 3}
      propertyPath: m_LocalPosition.z
      value: 0
      objectReference: {fileID: 0}
    - target: {fileID: 9012902298856262596, guid: 0d9ed8cfdcfa768488ef14d7af3ae5c9,
        type: 3}
      propertyPath: m_LocalRotation.x
      value: 0
      objectReference: {fileID: 0}
    - target: {fileID: 9012902298856262596, guid: 0d9ed8cfdcfa768488ef14d7af3ae5c9,
        type: 3}
      propertyPath: m_LocalRotation.y
      value: 0
      objectReference: {fileID: 0}
    - target: {fileID: 9012902298856262596, guid: 0d9ed8cfdcfa768488ef14d7af3ae5c9,
        type: 3}
      propertyPath: m_LocalRotation.z
      value: 0
      objectReference: {fileID: 0}
    - target: {fileID: 9012902298856262596, guid: 0d9ed8cfdcfa768488ef14d7af3ae5c9,
        type: 3}
      propertyPath: m_LocalRotation.w
      value: 1
      objectReference: {fileID: 0}
    - target: {fileID: 9012902298856262596, guid: 0d9ed8cfdcfa768488ef14d7af3ae5c9,
        type: 3}
      propertyPath: m_RootOrder
      value: 25
      objectReference: {fileID: 0}
    - target: {fileID: 9012902298856262596, guid: 0d9ed8cfdcfa768488ef14d7af3ae5c9,
        type: 3}
      propertyPath: m_LocalEulerAnglesHint.x
      value: 0
      objectReference: {fileID: 0}
    - target: {fileID: 9012902298856262596, guid: 0d9ed8cfdcfa768488ef14d7af3ae5c9,
        type: 3}
      propertyPath: m_LocalEulerAnglesHint.y
      value: 0
      objectReference: {fileID: 0}
    - target: {fileID: 9012902298856262596, guid: 0d9ed8cfdcfa768488ef14d7af3ae5c9,
        type: 3}
      propertyPath: m_LocalEulerAnglesHint.z
      value: 0
      objectReference: {fileID: 0}
    m_RemovedComponents: []
  m_SourcePrefab: {fileID: 100100000, guid: 0d9ed8cfdcfa768488ef14d7af3ae5c9, type: 3}
--- !u!1001 &6792372707871582890
PrefabInstance:
  m_ObjectHideFlags: 0
  serializedVersion: 2
  m_Modification:
    m_TransformParent: {fileID: 0}
    m_Modifications:
    - target: {fileID: 2129765369576588922, guid: 3c0761b2909662c4fb2775965f306998,
        type: 3}
      propertyPath: m_LocalPosition.x
      value: -4.42
      objectReference: {fileID: 0}
    - target: {fileID: 2129765369576588922, guid: 3c0761b2909662c4fb2775965f306998,
        type: 3}
      propertyPath: m_LocalPosition.y
      value: -0.51
      objectReference: {fileID: 0}
    - target: {fileID: 2129765369576588922, guid: 3c0761b2909662c4fb2775965f306998,
        type: 3}
      propertyPath: m_LocalPosition.z
      value: 0
      objectReference: {fileID: 0}
    - target: {fileID: 2129765369576588922, guid: 3c0761b2909662c4fb2775965f306998,
        type: 3}
      propertyPath: m_LocalRotation.x
      value: 0
      objectReference: {fileID: 0}
    - target: {fileID: 2129765369576588922, guid: 3c0761b2909662c4fb2775965f306998,
        type: 3}
      propertyPath: m_LocalRotation.y
      value: 0
      objectReference: {fileID: 0}
    - target: {fileID: 2129765369576588922, guid: 3c0761b2909662c4fb2775965f306998,
        type: 3}
      propertyPath: m_LocalRotation.z
      value: 0
      objectReference: {fileID: 0}
    - target: {fileID: 2129765369576588922, guid: 3c0761b2909662c4fb2775965f306998,
        type: 3}
      propertyPath: m_LocalRotation.w
      value: 1
      objectReference: {fileID: 0}
    - target: {fileID: 2129765369576588922, guid: 3c0761b2909662c4fb2775965f306998,
        type: 3}
      propertyPath: m_RootOrder
      value: 7
      objectReference: {fileID: 0}
    - target: {fileID: 2129765369576588922, guid: 3c0761b2909662c4fb2775965f306998,
        type: 3}
      propertyPath: m_LocalEulerAnglesHint.x
      value: 0
      objectReference: {fileID: 0}
    - target: {fileID: 2129765369576588922, guid: 3c0761b2909662c4fb2775965f306998,
        type: 3}
      propertyPath: m_LocalEulerAnglesHint.y
      value: 0
      objectReference: {fileID: 0}
    - target: {fileID: 2129765369576588922, guid: 3c0761b2909662c4fb2775965f306998,
        type: 3}
      propertyPath: m_LocalEulerAnglesHint.z
      value: 0
      objectReference: {fileID: 0}
    - target: {fileID: 3695958582583576570, guid: 3c0761b2909662c4fb2775965f306998,
        type: 3}
      propertyPath: m_LocalPosition.z
      value: 0
      objectReference: {fileID: 0}
    - target: {fileID: 4915592543410077791, guid: 3c0761b2909662c4fb2775965f306998,
        type: 3}
      propertyPath: m_Name
      value: Button
      objectReference: {fileID: 0}
    - target: {fileID: 6576295881495246101, guid: 3c0761b2909662c4fb2775965f306998,
        type: 3}
      propertyPath: m_LocalPosition.z
      value: 0
      objectReference: {fileID: 0}
    - target: {fileID: 8505735812431653840, guid: 3c0761b2909662c4fb2775965f306998,
        type: 3}
      propertyPath: m_Layer
      value: 8
      objectReference: {fileID: 0}
    m_RemovedComponents: []
  m_SourcePrefab: {fileID: 100100000, guid: 3c0761b2909662c4fb2775965f306998, type: 3}
--- !u!1001 &7008310318090540152
PrefabInstance:
  m_ObjectHideFlags: 0
  serializedVersion: 2
  m_Modification:
    m_TransformParent: {fileID: 0}
    m_Modifications:
    - target: {fileID: 7008310318484343557, guid: 45c115d09d24e4e43baaf0e2f24808fb,
        type: 3}
      propertyPath: m_Name
      value: Grass_ground3
      objectReference: {fileID: 0}
    - target: {fileID: 7008310318484343800, guid: 45c115d09d24e4e43baaf0e2f24808fb,
        type: 3}
      propertyPath: m_LocalPosition.x
      value: 1.16
      objectReference: {fileID: 0}
    - target: {fileID: 7008310318484343800, guid: 45c115d09d24e4e43baaf0e2f24808fb,
        type: 3}
      propertyPath: m_LocalPosition.y
      value: -1.97
      objectReference: {fileID: 0}
    - target: {fileID: 7008310318484343800, guid: 45c115d09d24e4e43baaf0e2f24808fb,
        type: 3}
      propertyPath: m_LocalPosition.z
      value: 0
      objectReference: {fileID: 0}
    - target: {fileID: 7008310318484343800, guid: 45c115d09d24e4e43baaf0e2f24808fb,
        type: 3}
      propertyPath: m_LocalRotation.x
      value: 0
      objectReference: {fileID: 0}
    - target: {fileID: 7008310318484343800, guid: 45c115d09d24e4e43baaf0e2f24808fb,
        type: 3}
      propertyPath: m_LocalRotation.y
      value: 0
      objectReference: {fileID: 0}
    - target: {fileID: 7008310318484343800, guid: 45c115d09d24e4e43baaf0e2f24808fb,
        type: 3}
      propertyPath: m_LocalRotation.z
      value: 0
      objectReference: {fileID: 0}
    - target: {fileID: 7008310318484343800, guid: 45c115d09d24e4e43baaf0e2f24808fb,
        type: 3}
      propertyPath: m_LocalRotation.w
      value: 1
      objectReference: {fileID: 0}
    - target: {fileID: 7008310318484343800, guid: 45c115d09d24e4e43baaf0e2f24808fb,
        type: 3}
      propertyPath: m_RootOrder
      value: 16
      objectReference: {fileID: 0}
    - target: {fileID: 7008310318484343800, guid: 45c115d09d24e4e43baaf0e2f24808fb,
        type: 3}
      propertyPath: m_LocalEulerAnglesHint.x
      value: 0
      objectReference: {fileID: 0}
    - target: {fileID: 7008310318484343800, guid: 45c115d09d24e4e43baaf0e2f24808fb,
        type: 3}
      propertyPath: m_LocalEulerAnglesHint.y
      value: 0
      objectReference: {fileID: 0}
    - target: {fileID: 7008310318484343800, guid: 45c115d09d24e4e43baaf0e2f24808fb,
        type: 3}
      propertyPath: m_LocalEulerAnglesHint.z
      value: 0
      objectReference: {fileID: 0}
    m_RemovedComponents: []
  m_SourcePrefab: {fileID: 100100000, guid: 45c115d09d24e4e43baaf0e2f24808fb, type: 3}
--- !u!1001 &7346532579811947781
PrefabInstance:
  m_ObjectHideFlags: 0
  serializedVersion: 2
  m_Modification:
    m_TransformParent: {fileID: 0}
    m_Modifications:
    - target: {fileID: 7346532579972607745, guid: 738dda76b2b53644b9d6fa0f99b3de4d,
        type: 3}
      propertyPath: m_Name
      value: Wall_platform_left
      objectReference: {fileID: 0}
    - target: {fileID: 7346532579972607757, guid: 738dda76b2b53644b9d6fa0f99b3de4d,
        type: 3}
      propertyPath: m_LocalPosition.x
      value: 2.5
      objectReference: {fileID: 0}
    - target: {fileID: 7346532579972607757, guid: 738dda76b2b53644b9d6fa0f99b3de4d,
        type: 3}
      propertyPath: m_LocalPosition.y
      value: 0.2
      objectReference: {fileID: 0}
    - target: {fileID: 7346532579972607757, guid: 738dda76b2b53644b9d6fa0f99b3de4d,
        type: 3}
      propertyPath: m_LocalPosition.z
      value: 0
      objectReference: {fileID: 0}
    - target: {fileID: 7346532579972607757, guid: 738dda76b2b53644b9d6fa0f99b3de4d,
        type: 3}
      propertyPath: m_LocalRotation.x
      value: 0
      objectReference: {fileID: 0}
    - target: {fileID: 7346532579972607757, guid: 738dda76b2b53644b9d6fa0f99b3de4d,
        type: 3}
      propertyPath: m_LocalRotation.y
      value: 0
      objectReference: {fileID: 0}
    - target: {fileID: 7346532579972607757, guid: 738dda76b2b53644b9d6fa0f99b3de4d,
        type: 3}
      propertyPath: m_LocalRotation.z
      value: 0
      objectReference: {fileID: 0}
    - target: {fileID: 7346532579972607757, guid: 738dda76b2b53644b9d6fa0f99b3de4d,
        type: 3}
      propertyPath: m_LocalRotation.w
      value: 1
      objectReference: {fileID: 0}
    - target: {fileID: 7346532579972607757, guid: 738dda76b2b53644b9d6fa0f99b3de4d,
        type: 3}
      propertyPath: m_RootOrder
      value: 12
      objectReference: {fileID: 0}
    - target: {fileID: 7346532579972607757, guid: 738dda76b2b53644b9d6fa0f99b3de4d,
        type: 3}
      propertyPath: m_LocalEulerAnglesHint.x
      value: 0
      objectReference: {fileID: 0}
    - target: {fileID: 7346532579972607757, guid: 738dda76b2b53644b9d6fa0f99b3de4d,
        type: 3}
      propertyPath: m_LocalEulerAnglesHint.y
      value: 0
      objectReference: {fileID: 0}
    - target: {fileID: 7346532579972607757, guid: 738dda76b2b53644b9d6fa0f99b3de4d,
        type: 3}
      propertyPath: m_LocalEulerAnglesHint.z
      value: 0
      objectReference: {fileID: 0}
    m_RemovedComponents: []
  m_SourcePrefab: {fileID: 100100000, guid: 738dda76b2b53644b9d6fa0f99b3de4d, type: 3}
--- !u!1001 &7876376809377180429
PrefabInstance:
  m_ObjectHideFlags: 0
  serializedVersion: 2
  m_Modification:
    m_TransformParent: {fileID: 0}
    m_Modifications:
    - target: {fileID: 7876376809516521797, guid: 50dffb421aca0894883a562c9542c125,
        type: 3}
      propertyPath: m_LocalPosition.x
      value: -0.72
      objectReference: {fileID: 0}
    - target: {fileID: 7876376809516521797, guid: 50dffb421aca0894883a562c9542c125,
        type: 3}
      propertyPath: m_LocalPosition.y
      value: 0.75
      objectReference: {fileID: 0}
    - target: {fileID: 7876376809516521797, guid: 50dffb421aca0894883a562c9542c125,
        type: 3}
      propertyPath: m_LocalPosition.z
      value: 0
      objectReference: {fileID: 0}
    - target: {fileID: 7876376809516521797, guid: 50dffb421aca0894883a562c9542c125,
        type: 3}
      propertyPath: m_LocalRotation.x
      value: 0
      objectReference: {fileID: 0}
    - target: {fileID: 7876376809516521797, guid: 50dffb421aca0894883a562c9542c125,
        type: 3}
      propertyPath: m_LocalRotation.y
      value: 0
      objectReference: {fileID: 0}
    - target: {fileID: 7876376809516521797, guid: 50dffb421aca0894883a562c9542c125,
        type: 3}
      propertyPath: m_LocalRotation.z
      value: 0
      objectReference: {fileID: 0}
    - target: {fileID: 7876376809516521797, guid: 50dffb421aca0894883a562c9542c125,
        type: 3}
      propertyPath: m_LocalRotation.w
      value: 1
      objectReference: {fileID: 0}
    - target: {fileID: 7876376809516521797, guid: 50dffb421aca0894883a562c9542c125,
        type: 3}
      propertyPath: m_RootOrder
      value: 4
      objectReference: {fileID: 0}
    - target: {fileID: 7876376809516521797, guid: 50dffb421aca0894883a562c9542c125,
        type: 3}
      propertyPath: m_LocalEulerAnglesHint.x
      value: 0
      objectReference: {fileID: 0}
    - target: {fileID: 7876376809516521797, guid: 50dffb421aca0894883a562c9542c125,
        type: 3}
      propertyPath: m_LocalEulerAnglesHint.y
      value: 0
      objectReference: {fileID: 0}
    - target: {fileID: 7876376809516521797, guid: 50dffb421aca0894883a562c9542c125,
        type: 3}
      propertyPath: m_LocalEulerAnglesHint.z
      value: 0
      objectReference: {fileID: 0}
    - target: {fileID: 7876376809516521803, guid: 50dffb421aca0894883a562c9542c125,
        type: 3}
      propertyPath: m_Name
      value: Player
      objectReference: {fileID: 0}
    m_RemovedComponents: []
  m_SourcePrefab: {fileID: 100100000, guid: 50dffb421aca0894883a562c9542c125, type: 3}
--- !u!1001 &8316451690047218642
PrefabInstance:
  m_ObjectHideFlags: 0
  serializedVersion: 2
  m_Modification:
    m_TransformParent: {fileID: 0}
    m_Modifications:
    - target: {fileID: 1374769579787116476, guid: 631f2e032f5d42341b6d4b9674706551,
        type: 3}
      propertyPath: m_Name
      value: Grass_ground5
      objectReference: {fileID: 0}
    - target: {fileID: 7723503339589257087, guid: 631f2e032f5d42341b6d4b9674706551,
        type: 3}
      propertyPath: m_LocalPosition.x
      value: -1.2615792
      objectReference: {fileID: 0}
    - target: {fileID: 7723503339589257087, guid: 631f2e032f5d42341b6d4b9674706551,
        type: 3}
      propertyPath: m_LocalPosition.y
      value: -1.9860368
      objectReference: {fileID: 0}
    - target: {fileID: 7723503339589257087, guid: 631f2e032f5d42341b6d4b9674706551,
        type: 3}
      propertyPath: m_LocalPosition.z
      value: 0
      objectReference: {fileID: 0}
    - target: {fileID: 7723503339589257087, guid: 631f2e032f5d42341b6d4b9674706551,
        type: 3}
      propertyPath: m_LocalRotation.x
      value: 0
      objectReference: {fileID: 0}
    - target: {fileID: 7723503339589257087, guid: 631f2e032f5d42341b6d4b9674706551,
        type: 3}
      propertyPath: m_LocalRotation.y
      value: 0
      objectReference: {fileID: 0}
    - target: {fileID: 7723503339589257087, guid: 631f2e032f5d42341b6d4b9674706551,
        type: 3}
      propertyPath: m_LocalRotation.z
      value: 0
      objectReference: {fileID: 0}
    - target: {fileID: 7723503339589257087, guid: 631f2e032f5d42341b6d4b9674706551,
        type: 3}
      propertyPath: m_LocalRotation.w
      value: 1
      objectReference: {fileID: 0}
    - target: {fileID: 7723503339589257087, guid: 631f2e032f5d42341b6d4b9674706551,
        type: 3}
      propertyPath: m_RootOrder
      value: 18
      objectReference: {fileID: 0}
    - target: {fileID: 7723503339589257087, guid: 631f2e032f5d42341b6d4b9674706551,
        type: 3}
      propertyPath: m_LocalEulerAnglesHint.x
      value: 0
      objectReference: {fileID: 0}
    - target: {fileID: 7723503339589257087, guid: 631f2e032f5d42341b6d4b9674706551,
        type: 3}
      propertyPath: m_LocalEulerAnglesHint.y
      value: 0
      objectReference: {fileID: 0}
    - target: {fileID: 7723503339589257087, guid: 631f2e032f5d42341b6d4b9674706551,
        type: 3}
      propertyPath: m_LocalEulerAnglesHint.z
      value: 0
      objectReference: {fileID: 0}
    m_RemovedComponents: []
  m_SourcePrefab: {fileID: 100100000, guid: 631f2e032f5d42341b6d4b9674706551, type: 3}
--- !u!1001 &8451867519973030046
PrefabInstance:
  m_ObjectHideFlags: 0
  serializedVersion: 2
  m_Modification:
    m_TransformParent: {fileID: 0}
    m_Modifications:
    - target: {fileID: 4463370731875577504, guid: c3a100e10b4a51d44a3f9d97fe2a420c,
        type: 3}
      propertyPath: m_LocalPosition.x
      value: -1.2615792
      objectReference: {fileID: 0}
    - target: {fileID: 4463370731875577504, guid: c3a100e10b4a51d44a3f9d97fe2a420c,
        type: 3}
      propertyPath: m_LocalPosition.y
      value: -1.9860368
      objectReference: {fileID: 0}
    - target: {fileID: 4463370731875577504, guid: c3a100e10b4a51d44a3f9d97fe2a420c,
        type: 3}
      propertyPath: m_LocalPosition.z
      value: 0
      objectReference: {fileID: 0}
    - target: {fileID: 4463370731875577504, guid: c3a100e10b4a51d44a3f9d97fe2a420c,
        type: 3}
      propertyPath: m_LocalRotation.x
      value: 0
      objectReference: {fileID: 0}
    - target: {fileID: 4463370731875577504, guid: c3a100e10b4a51d44a3f9d97fe2a420c,
        type: 3}
      propertyPath: m_LocalRotation.y
      value: 0
      objectReference: {fileID: 0}
    - target: {fileID: 4463370731875577504, guid: c3a100e10b4a51d44a3f9d97fe2a420c,
        type: 3}
      propertyPath: m_LocalRotation.z
      value: 0
      objectReference: {fileID: 0}
    - target: {fileID: 4463370731875577504, guid: c3a100e10b4a51d44a3f9d97fe2a420c,
        type: 3}
      propertyPath: m_LocalRotation.w
      value: 1
      objectReference: {fileID: 0}
    - target: {fileID: 4463370731875577504, guid: c3a100e10b4a51d44a3f9d97fe2a420c,
        type: 3}
      propertyPath: m_RootOrder
      value: 23
      objectReference: {fileID: 0}
    - target: {fileID: 4463370731875577504, guid: c3a100e10b4a51d44a3f9d97fe2a420c,
        type: 3}
      propertyPath: m_LocalEulerAnglesHint.x
      value: 0
      objectReference: {fileID: 0}
    - target: {fileID: 4463370731875577504, guid: c3a100e10b4a51d44a3f9d97fe2a420c,
        type: 3}
      propertyPath: m_LocalEulerAnglesHint.y
      value: 0
      objectReference: {fileID: 0}
    - target: {fileID: 4463370731875577504, guid: c3a100e10b4a51d44a3f9d97fe2a420c,
        type: 3}
      propertyPath: m_LocalEulerAnglesHint.z
      value: 0
      objectReference: {fileID: 0}
    - target: {fileID: 5795047047381282930, guid: c3a100e10b4a51d44a3f9d97fe2a420c,
        type: 3}
      propertyPath: m_Name
      value: Grass_ground10
      objectReference: {fileID: 0}
    m_RemovedComponents: []
  m_SourcePrefab: {fileID: 100100000, guid: c3a100e10b4a51d44a3f9d97fe2a420c, type: 3}
--- !u!1001 &8731254375397950689
PrefabInstance:
  m_ObjectHideFlags: 0
  serializedVersion: 2
  m_Modification:
    m_TransformParent: {fileID: 0}
    m_Modifications:
    - target: {fileID: 3888941338411017225, guid: 3a95700fb9e0aa247a0be23c89bebe6d,
        type: 3}
      propertyPath: m_LocalPosition.x
      value: -1.2615792
      objectReference: {fileID: 0}
    - target: {fileID: 3888941338411017225, guid: 3a95700fb9e0aa247a0be23c89bebe6d,
        type: 3}
      propertyPath: m_LocalPosition.y
      value: -1.9860368
      objectReference: {fileID: 0}
    - target: {fileID: 3888941338411017225, guid: 3a95700fb9e0aa247a0be23c89bebe6d,
        type: 3}
      propertyPath: m_LocalPosition.z
      value: 0
      objectReference: {fileID: 0}
    - target: {fileID: 3888941338411017225, guid: 3a95700fb9e0aa247a0be23c89bebe6d,
        type: 3}
      propertyPath: m_LocalRotation.x
      value: 0
      objectReference: {fileID: 0}
    - target: {fileID: 3888941338411017225, guid: 3a95700fb9e0aa247a0be23c89bebe6d,
        type: 3}
      propertyPath: m_LocalRotation.y
      value: 0
      objectReference: {fileID: 0}
    - target: {fileID: 3888941338411017225, guid: 3a95700fb9e0aa247a0be23c89bebe6d,
        type: 3}
      propertyPath: m_LocalRotation.z
      value: 0
      objectReference: {fileID: 0}
    - target: {fileID: 3888941338411017225, guid: 3a95700fb9e0aa247a0be23c89bebe6d,
        type: 3}
      propertyPath: m_LocalRotation.w
      value: 1
      objectReference: {fileID: 0}
    - target: {fileID: 3888941338411017225, guid: 3a95700fb9e0aa247a0be23c89bebe6d,
        type: 3}
      propertyPath: m_RootOrder
      value: 24
      objectReference: {fileID: 0}
    - target: {fileID: 3888941338411017225, guid: 3a95700fb9e0aa247a0be23c89bebe6d,
        type: 3}
      propertyPath: m_LocalEulerAnglesHint.x
      value: 0
      objectReference: {fileID: 0}
    - target: {fileID: 3888941338411017225, guid: 3a95700fb9e0aa247a0be23c89bebe6d,
        type: 3}
      propertyPath: m_LocalEulerAnglesHint.y
      value: 0
      objectReference: {fileID: 0}
    - target: {fileID: 3888941338411017225, guid: 3a95700fb9e0aa247a0be23c89bebe6d,
        type: 3}
      propertyPath: m_LocalEulerAnglesHint.z
      value: 0
      objectReference: {fileID: 0}
    - target: {fileID: 6369632576530152155, guid: 3a95700fb9e0aa247a0be23c89bebe6d,
        type: 3}
      propertyPath: m_Name
      value: Grass_ground11
      objectReference: {fileID: 0}
    m_RemovedComponents: []
  m_SourcePrefab: {fileID: 100100000, guid: 3a95700fb9e0aa247a0be23c89bebe6d, type: 3}
--- !u!1001 &8773167832762394859
PrefabInstance:
  m_ObjectHideFlags: 0
  serializedVersion: 2
  m_Modification:
    m_TransformParent: {fileID: 0}
    m_Modifications:
    - target: {fileID: 8773167831131648032, guid: 284f53dd48238954dad20d191bc8254c,
        type: 3}
      propertyPath: m_LocalPosition.x
      value: 2.442956
      objectReference: {fileID: 0}
    - target: {fileID: 8773167831131648032, guid: 284f53dd48238954dad20d191bc8254c,
        type: 3}
      propertyPath: m_LocalPosition.y
      value: -1.953963
      objectReference: {fileID: 0}
    - target: {fileID: 8773167831131648032, guid: 284f53dd48238954dad20d191bc8254c,
        type: 3}
      propertyPath: m_LocalPosition.z
      value: 0
      objectReference: {fileID: 0}
    - target: {fileID: 8773167831131648032, guid: 284f53dd48238954dad20d191bc8254c,
        type: 3}
      propertyPath: m_LocalRotation.x
      value: 0
      objectReference: {fileID: 0}
    - target: {fileID: 8773167831131648032, guid: 284f53dd48238954dad20d191bc8254c,
        type: 3}
      propertyPath: m_LocalRotation.y
      value: 0
      objectReference: {fileID: 0}
    - target: {fileID: 8773167831131648032, guid: 284f53dd48238954dad20d191bc8254c,
        type: 3}
      propertyPath: m_LocalRotation.z
      value: 0
      objectReference: {fileID: 0}
    - target: {fileID: 8773167831131648032, guid: 284f53dd48238954dad20d191bc8254c,
        type: 3}
      propertyPath: m_LocalRotation.w
      value: 1
      objectReference: {fileID: 0}
    - target: {fileID: 8773167831131648032, guid: 284f53dd48238954dad20d191bc8254c,
        type: 3}
      propertyPath: m_RootOrder
      value: 17
      objectReference: {fileID: 0}
    - target: {fileID: 8773167831131648032, guid: 284f53dd48238954dad20d191bc8254c,
        type: 3}
      propertyPath: m_LocalEulerAnglesHint.x
      value: 0
      objectReference: {fileID: 0}
    - target: {fileID: 8773167831131648032, guid: 284f53dd48238954dad20d191bc8254c,
        type: 3}
      propertyPath: m_LocalEulerAnglesHint.y
      value: 0
      objectReference: {fileID: 0}
    - target: {fileID: 8773167831131648032, guid: 284f53dd48238954dad20d191bc8254c,
        type: 3}
      propertyPath: m_LocalEulerAnglesHint.z
      value: 0
      objectReference: {fileID: 0}
    - target: {fileID: 8773167831131648035, guid: 284f53dd48238954dad20d191bc8254c,
        type: 3}
      propertyPath: m_Name
      value: Grass_ground4
      objectReference: {fileID: 0}
    m_RemovedComponents: []
  m_SourcePrefab: {fileID: 100100000, guid: 284f53dd48238954dad20d191bc8254c, type: 3}
--- !u!1001 &8839647362105961957
PrefabInstance:
  m_ObjectHideFlags: 0
  serializedVersion: 2
  m_Modification:
    m_TransformParent: {fileID: 0}
    m_Modifications:
    - target: {fileID: 1198051852214298044, guid: d0ee97b942a264b49b82b65cc3c50d34,
        type: 3}
      propertyPath: m_RootOrder
      value: 14
      objectReference: {fileID: 0}
    - target: {fileID: 3162517175346767368, guid: d0ee97b942a264b49b82b65cc3c50d34,
        type: 3}
      propertyPath: m_Name
      value: Grass_ground1
      objectReference: {fileID: 0}
    - target: {fileID: 7545445242372099819, guid: d0ee97b942a264b49b82b65cc3c50d34,
        type: 3}
      propertyPath: m_LocalPosition.x
      value: -1.2615792
      objectReference: {fileID: 0}
    - target: {fileID: 7545445242372099819, guid: d0ee97b942a264b49b82b65cc3c50d34,
        type: 3}
      propertyPath: m_LocalPosition.y
      value: -1.9860368
      objectReference: {fileID: 0}
    - target: {fileID: 7545445242372099819, guid: d0ee97b942a264b49b82b65cc3c50d34,
        type: 3}
      propertyPath: m_LocalPosition.z
      value: 0
      objectReference: {fileID: 0}
    - target: {fileID: 7545445242372099819, guid: d0ee97b942a264b49b82b65cc3c50d34,
        type: 3}
      propertyPath: m_LocalRotation.x
      value: 0
      objectReference: {fileID: 0}
    - target: {fileID: 7545445242372099819, guid: d0ee97b942a264b49b82b65cc3c50d34,
        type: 3}
      propertyPath: m_LocalRotation.y
      value: 0
      objectReference: {fileID: 0}
    - target: {fileID: 7545445242372099819, guid: d0ee97b942a264b49b82b65cc3c50d34,
        type: 3}
      propertyPath: m_LocalRotation.z
      value: 0
      objectReference: {fileID: 0}
    - target: {fileID: 7545445242372099819, guid: d0ee97b942a264b49b82b65cc3c50d34,
        type: 3}
      propertyPath: m_LocalRotation.w
      value: 1
      objectReference: {fileID: 0}
    - target: {fileID: 7545445242372099819, guid: d0ee97b942a264b49b82b65cc3c50d34,
        type: 3}
      propertyPath: m_RootOrder
      value: 17
      objectReference: {fileID: 0}
    - target: {fileID: 7545445242372099819, guid: d0ee97b942a264b49b82b65cc3c50d34,
        type: 3}
      propertyPath: m_LocalEulerAnglesHint.x
      value: 0
      objectReference: {fileID: 0}
    - target: {fileID: 7545445242372099819, guid: d0ee97b942a264b49b82b65cc3c50d34,
        type: 3}
      propertyPath: m_LocalEulerAnglesHint.y
      value: 0
      objectReference: {fileID: 0}
    - target: {fileID: 7545445242372099819, guid: d0ee97b942a264b49b82b65cc3c50d34,
        type: 3}
      propertyPath: m_LocalEulerAnglesHint.z
      value: 0
      objectReference: {fileID: 0}
    m_RemovedComponents: []
  m_SourcePrefab: {fileID: 100100000, guid: d0ee97b942a264b49b82b65cc3c50d34, type: 3}
